TITL 1000007
CELL 0.71073 9.7397 8.9174 5.2503 90 105.866 90
ZERR 8 0.00000 0.00000 0.00000 0.00000 0.00000 0.00000
LATT 7
SYMM -x,y,1/2-z
SFAC O Mg Si Ca
UNIT 24 4 8 4
FVAR 1.00
Ca      4  0.000000  0.301480  0.250000  0.500000 0.008230
Si      3  0.286190  0.093190  0.229360  1.000000 0.004310
O1      1  0.115540  0.086900  0.141860  1.000000 0.006970
O2      1  0.360940  0.250190  0.317760  1.000000 0.007850
O3      1  0.350730  0.017440 -0.004570  1.000000 0.007090
Mg      2  0.000000 -0.091920  0.250000  0.500000 0.003930
END
