TITL 1000003
CELL 0.71073 7.9661 9.205 7.3198 90 102.104 90
ZERR 4 0.0007 0.001 0.0008 0.000 0.008 0.000
LATT 1
SYMM -x,1/2+y,1/2-z
SFAC C O Sr
UNIT 12 24 4
FVAR 1.00
Sr1     3  0.827300 -0.173900  0.956800  1.000000 0.630000
O2      2  0.833700  0.115500  0.979000  1.000000 0.970000
O3      2  0.894800 -0.098500  0.647000  1.000000 0.970000
O4      2  0.542500 -0.030800  0.802000  1.000000 0.970000
O5      2  0.403900  0.183500  0.799100  1.000000 0.970000
O6      2  1.048100  0.108400  0.697800  1.000000 0.970000
O7      2  0.705200  0.329000  0.894400  1.000000 0.970000
C8      1  0.536000  0.103000  0.829000  1.000000 1.400000
C9      1  0.708000  0.189000  0.909000  1.000000 1.400000
C10     1  0.973000 -0.002000  0.601000  1.000000 1.400000
END
