TITL 1011258
CELL 0.71073 3.22 3.22 5.2 90 90 120
ZERR 12 0.00 0.00 0.0 0 0 0
LATT -1
SYMM -y,x-y,z
SYMM -x+y,-x,z
SYMM -y,-x,z
SYMM -x+y,y,z
SYMM x,x-y,z
SYMM -x,-y,1/2+z
SYMM y,-x+y,1/2+z
SYMM x-y,x,1/2+z
SYMM y,x,1/2+z
SYMM x-y,-y,1/2+z
SYMM -x,-x+y,1/2+z
SFAC O Zn
UNIT 2 2
FVAR 1.00
Zn1     2  0.333300  0.666700  0.000000  0.166667 0.05000
O1      1  0.333300  0.666700  0.375000  0.166667 0.05000
END
