TITL 1507774
CELL 0.71073 4.1769 4.7218 58.3385 89.44 89.634 75.854
ZERR 2 0.0002 0.0002 0.0001 0.003 0.005 0.001
LATT 1
SFAC C H O Ag
UNIT 44 86 4 2
FVAR 1.00
Ag1A    4  1.232400  0.778900  0.011390  1.000000 0.142000
O1      3  1.677400  0.367300  0.021710  1.000000 0.020000
O2      3  2.049400  0.046500  0.043440  1.000000 0.020000
C1      1  1.809500  0.271100  0.041080  1.000000 0.010000
C2      1  1.676200  0.441400  0.062220  1.000000 0.010000
C3      1  1.635000  0.250900  0.082810  1.000000 0.010000
C4      1  1.506600  0.433700  0.103870  1.000000 0.010000
C5      1  1.437300  0.261300  0.124770  1.000000 0.010000
C6      1  1.296200  0.461000  0.144690  1.000000 0.010000
C7      1  1.218200  0.300200  0.165950  1.000000 0.010000
C8      1  1.081700  0.505100  0.185700  1.000000 0.010000
C9      1  1.009900  0.347800  0.207450  1.000000 0.010000
C10     1  0.881700  0.551500  0.227470  1.000000 0.010000
C11     1  0.803500  0.389900  0.248720  1.000000 0.010000
C12     1  0.686600  0.588000  0.269210  1.000000 0.010000
C13     1  0.623600  0.420200  0.290630  1.000000 0.010000
C14     1  0.488900  0.611600  0.311080  1.000000 0.010000
C15     1  0.418100  0.440700  0.332090  1.000000 0.010000
C16     1  0.277400  0.639000  0.352180  1.000000 0.010000
C17     1  0.209700  0.478100  0.373900  1.000000 0.010000
C18     1  0.069800  0.680400  0.393810  1.000000 0.010000
C19     1 -0.005100  0.518800  0.415210  1.000000 0.010000
C20     1 -0.145000  0.722400  0.435060  1.000000 0.010000
C21     1 -0.209600  0.563300  0.456980  1.000000 0.010000
C22     1 -0.346200  0.767900  0.476750  1.000000 0.010000
H2A     2  1.851600  0.574000  0.066300  1.000000 0.050000
H2B     2  1.441900  0.596600  0.058100  1.000000 0.050000
H3A     2  1.872500  0.096900  0.086700  1.000000 0.050000
H3B     2  1.463000  0.117400  0.078200  1.000000 0.050000
H4A     2  1.682900  0.562800  0.108600  1.000000 0.050000
H4B     2  1.276900  0.596100  0.099300  1.000000 0.050000
H5A     2  1.666300  0.104100  0.130200  1.000000 0.050000
H5B     2  1.264500  0.128200  0.120200  1.000000 0.050000
H6A     2  1.470600  0.593000  0.149200  1.000000 0.050000
H6B     2  1.069700  0.620000  0.139100  1.000000 0.050000
H7A     2  1.443600  0.140200  0.171600  1.000000 0.050000
H7B     2  1.040900  0.170900  0.161500  1.000000 0.050000
H8A     2  1.257600  0.638100  0.189600  1.000000 0.050000
H8B     2  0.854100  0.662600  0.180100  1.000000 0.050000
H9A     2  1.236200  0.186600  0.212800  1.000000 0.050000
H9B     2  0.829600  0.219400  0.203500  1.000000 0.050000
H10A    2  1.065600  0.674400  0.231800  1.000000 0.050000
H10B    2  0.658300  0.717000  0.222200  1.000000 0.050000
H11A    2  1.025100  0.220000  0.253600  1.000000 0.050000
H11B    2  0.614600  0.272000  0.244400  1.000000 0.050000
H12A    2  0.871200  0.712300  0.273000  1.000000 0.050000
H12B    2  0.459100  0.752600  0.264600  1.000000 0.050000
H13A    2  0.854900  0.263400  0.295700  1.000000 0.050000
H13B    2  0.450100  0.286300  0.286400  1.000000 0.050000
H14A    2  0.663600  0.742500  0.315700  1.000000 0.050000
H14B    2  0.259800  0.771000  0.306000  1.000000 0.050000
H15A    2  0.646900  0.282700  0.337400  1.000000 0.050000
H15B    2  0.244500  0.308900  0.327400  1.000000 0.050000
H16A    2  0.448100  0.776200  0.356300  1.000000 0.050000
H16B    2  0.046800  0.793200  0.346600  1.000000 0.050000
H17A    2  0.440400  0.324100  0.379500  1.000000 0.050000
H17B    2  0.038300  0.341300  0.369900  1.000000 0.050000
H18A    2  0.244000  0.812700  0.398300  1.000000 0.050000
H18B    2 -0.157900  0.838600  0.388300  1.000000 0.050000
H19A    2  0.222500  0.361200  0.420800  1.000000 0.050000
H19B    2 -0.179400  0.386200  0.410800  1.000000 0.050000
H20A    2  0.026000  0.860100  0.439000  1.000000 0.050000
H20B    2 -0.376400  0.875500  0.429500  1.000000 0.050000
H21A    2  0.022000  0.410200  0.462400  1.000000 0.050000
H21B    2 -0.380800  0.425900  0.453100  1.000000 0.050000
H22A    2 -0.173800  0.899000  0.481700  1.000000 0.050000
H22B    2 -0.581000  0.920600  0.472100  1.000000 0.050000
H22C    2 -0.391600  0.645900  0.492100  1.000000 0.050000
END
