TITL 2000581
CELL 0.71073 10.1291 5.9038 14.961 90 90 103.64
ZERR 8 0.0008 0.0005 0.0010 0 0.008 0
LATT 5
SYMM 1/2-x,-y,z
SFAC H O K Se
UNIT 4 32 16 8
FVAR 1.00
K(1)    3  0.250000  0.755380  0.000000  1.000000 0.05000
K(2)    3  0.651900  0.737010  0.196540  1.000000 0.05000
Se      4  0.460140  0.232100  0.116090  1.000000 0.05000
O(1)    2  0.398800  0.012900  0.157470  1.000000 0.05000
O(2)    2  0.434800  0.181400  0.001840  1.000000 0.05000
O(3)    2  0.623610  0.249800  0.154430  1.000000 0.05000
O(4)    2  0.382600  0.464100  0.129100  1.000000 0.05000
H       1  0.500000  0.000000  0.000000  0.500000 0.06000
END
