TITL 2000018
CELL 0.71073 10.1922 14.2843 23.164 99.197 93.272 102.595
ZERR 2 0.0011 0.0015 0.002 0.003 0.003 0.003
LATT 1
SFAC C H N O F S Ag
UNIT 126 108 4 18 18 16 4
FVAR 1.00
S1?     6  0.242420 -0.193680  0.274020  1.000000 0.05000
S2      6 -0.767970 -0.456120  0.189900  1.000000 0.05000
S3      6 -0.169520 -0.223450 -0.144100  1.000000 0.05000
S4      6 -0.515270 -0.601050  0.269500  1.000000 0.05000
S5      6  0.107750  0.068630  0.279280  1.000000 0.05000
S6      6 -0.491300 -0.070800  0.628400  1.000000 0.05000
S7      6  0.445490  0.061310  0.169260  1.000000 0.05000
S8      6 -0.984160 -0.565120  0.296670  1.000000 0.05000
F1?     5  0.568200 -0.054700  0.202300  1.000000 0.05000
F2      5  0.697000  0.094900  0.192700  1.000000 0.05000
F3      5  0.598100 -0.021900  0.117000  1.000000 0.05000
F4      5  0.621000  0.007000  0.232400  1.000000 0.05000
F5?     5  0.692000  0.031000  0.147300  1.000000 0.05000
F6?     5  0.589000 -0.069000  0.130500  1.000000 0.05000
F7      5 -1.124300 -0.726200  0.321300  1.000000 0.05000
F8      5 -1.031300 -0.624400  0.395490  1.000000 0.05000
F9      5 -1.205200 -0.604300  0.348600  1.000000 0.05000
O1      4  0.428400  0.102100  0.227900  1.000000 0.05000
O2      4  0.476700  0.137500  0.135300  1.000000 0.05000
O3      4  0.337800 -0.019900  0.141700  1.000000 0.05000
O4?     4  0.485000  0.152900  0.202300  1.000000 0.05000
O5?     4  0.438700  0.063800  0.105800  1.000000 0.05000
O6?     4  0.354300 -0.015600  0.182900  1.000000 0.05000
O7      4 -0.870800 -0.608600  0.297290  1.000000 0.05000
O8      4 -0.960900 -0.468000  0.325860  1.000000 0.05000
O9      4 -1.062200 -0.582900  0.241510  1.000000 0.05000
N1      3 -0.239200 -0.324900  0.095260  1.000000 0.05000
N2      3 -0.301700 -0.190500  0.394250  1.000000 0.05000
C1      1 -0.127100 -0.291900  0.138690  1.000000 0.05000
C2      1 -0.117500 -0.341000  0.185770  1.000000 0.05000
H1      2 -0.187000 -0.396000  0.188700  1.000000 0.06000
C3      1 -0.009100 -0.311400  0.228100  1.000000 0.05000
H2      2 -0.004600 -0.345600  0.259900  1.000000 0.06000
C4      1  0.093800 -0.231300  0.224230  1.000000 0.05000
C5      1  0.085000 -0.181500  0.177920  1.000000 0.05000
H3      2  0.154500 -0.126400  0.175200  1.000000 0.06000
C6      1 -0.024200 -0.211600  0.135540  1.000000 0.05000
H4      2 -0.028900 -0.177000  0.104000  1.000000 0.06000
C7      1  0.183400 -0.225900  0.341580  1.000000 0.05000
H5      2  0.157500 -0.297000  0.337500  1.000000 0.06000
H6      2  0.105000 -0.198700  0.350400  1.000000 0.06000
H7      2  0.255500 -0.199600  0.373600  1.000000 0.06000
C8      1 -0.369300 -0.355200  0.114530  1.000000 0.05000
C9      1 -0.457800 -0.440900  0.087000  1.000000 0.05000
H8      2 -0.433800 -0.478300  0.053200  1.000000 0.06000
C10     1 -0.580400 -0.472200  0.108210  1.000000 0.05000
H9      2 -0.639400 -0.531900  0.089600  1.000000 0.06000
C11     1 -0.618400 -0.416500  0.157040  1.000000 0.05000
C12     1 -0.530000 -0.329900  0.183910  1.000000 0.05000
H10     2 -0.554400 -0.291400  0.217100  1.000000 0.06000
C13     1 -0.406600 -0.299600  0.162650  1.000000 0.05000
H11     2 -0.347100 -0.240100  0.181200  1.000000 0.06000
C14     1 -0.898000 -0.480100  0.129600  1.000000 0.05000
H12     2 -0.986300 -0.503600  0.143500  1.000000 0.06000
H13     2 -0.880900 -0.529800  0.098500  1.000000 0.06000
H14     2 -0.897500 -0.420000  0.114200  1.000000 0.06000
C15     1 -0.226200 -0.307400  0.036980  1.000000 0.05000
C16     1 -0.109300 -0.315300  0.010600  1.000000 0.05000
H15     2 -0.042300 -0.338800  0.030400  1.000000 0.06000
C17     1 -0.088200 -0.290000 -0.043540  1.000000 0.05000
H16     2 -0.005700 -0.293400 -0.060000  1.000000 0.06000
C18     1 -0.187900 -0.259200 -0.074190  1.000000 0.05000
C19     1 -0.307900 -0.255700 -0.049750  1.000000 0.05000
H17     2 -0.377800 -0.237300 -0.071100  1.000000 0.06000
C20     1 -0.327100 -0.278600  0.005490  1.000000 0.05000
H18     2 -0.409300 -0.274800  0.022100  1.000000 0.06000
C21     1  0.009500 -0.205100 -0.150700  1.000000 0.05000
H19     2  0.057100 -0.144000 -0.125400  1.000000 0.06000
H20     2  0.026600 -0.201800 -0.191600  1.000000 0.06000
H21     2  0.041900 -0.259500 -0.138800  1.000000 0.06000
C22     1 -0.451100 -0.475600  0.300250  1.000000 0.05000
C23     1 -0.540500 -0.423200  0.324920  1.000000 0.05000
H22     2 -0.634600 -0.452100  0.321200  1.000000 0.06000
C24     1 -0.491500 -0.328600  0.355040  1.000000 0.05000
H23     2 -0.552400 -0.292700  0.371700  1.000000 0.06000
C25     1 -0.353800 -0.286000  0.360990  1.000000 0.05000
C26     1 -0.266400 -0.338100  0.335270  1.000000 0.05000
H24     2 -0.172500 -0.309100  0.338500  1.000000 0.06000
C27     1 -0.315000 -0.432700  0.304690  1.000000 0.05000
H25     2 -0.254300 -0.467800  0.286800  1.000000 0.06000
C28     1 -0.410200 -0.623600  0.211300  1.000000 0.05000
H26     2 -0.318000 -0.618500  0.228200  1.000000 0.06000
H27     2 -0.446200 -0.689200  0.188600  1.000000 0.06000
H28     2 -0.409300 -0.575500  0.185500  1.000000 0.06000
C29     1 -0.204000 -0.125200  0.368700  1.000000 0.05000
C30     1 -0.080600 -0.077100  0.399600  1.000000 0.05000
H29     2 -0.061500 -0.085500  0.438800  1.000000 0.06000
C31     1  0.014400 -0.016900  0.373500  1.000000 0.05000
H30     2  0.098900  0.015400  0.394800  1.000000 0.06000
C32     1 -0.012900 -0.003400  0.316600  1.000000 0.05000
C33     1 -0.134300 -0.051200  0.286300  1.000000 0.05000
H31     2 -0.153200 -0.042800  0.247100  1.000000 0.06000
C34     1 -0.230000 -0.111800  0.312100  1.000000 0.05000
H32     2 -0.314100 -0.144200  0.290600  1.000000 0.06000
C35     1  0.162500  0.181800  0.331600  1.000000 0.05000
H33     2  0.092400  0.219000  0.331500  1.000000 0.06000
H34     2  0.178600  0.167200  0.371000  1.000000 0.06000
H35     2  0.246200  0.220100  0.320500  1.000000 0.06000
C36     1 -0.340100 -0.163400  0.450640  1.000000 0.05000
C37     1 -0.390400 -0.233600  0.484360  1.000000 0.05000
H36     2 -0.396400 -0.300500  0.469500  1.000000 0.06000
C38     1 -0.431500 -0.206900  0.538780  1.000000 0.05000
H37     2 -0.464900 -0.255700  0.561200  1.000000 0.06000
C39     1 -0.425000 -0.109700  0.561740  1.000000 0.05000
C40     1 -0.370600 -0.039500  0.529330  1.000000 0.05000
H38     2 -0.361500  0.027400  0.545100  1.000000 0.06000
C41     1 -0.329800 -0.065400  0.474860  1.000000 0.05000
H39     2 -0.294000 -0.016100  0.453200  1.000000 0.06000
C42     1 -0.570800 -0.182800  0.650800  1.000000 0.05000
H40     2 -0.644100 -0.219300  0.621100  1.000000 0.06000
H41     2 -0.504000 -0.221900  0.654900  1.000000 0.06000
H42     2 -0.607500 -0.168200  0.688500  1.000000 0.06000
C43     1 -1.092400 -0.632700  0.342800  1.000000 0.05000
C44     1  0.578200  0.029300  0.182000  1.000000 0.05000
Ag1     7  0.306040 -0.010820  0.289050  1.000000 0.05000
Ag2     7 -0.740250 -0.619360  0.212250  1.000000 0.05000
C45     1  0.691500  0.207000 -0.024400  1.000000 0.05000
H43     2  0.674100  0.151100 -0.054600  1.000000 0.06000
C46     1  0.679900  0.198400  0.032300  1.000000 0.05000
H44     2  0.651000  0.135000  0.041300  1.000000 0.06000
C47     1  0.707400  0.275200  0.076700  1.000000 0.05000
H45     2  0.698300  0.266000  0.116100  1.000000 0.06000
C48     1  0.749900  0.369600  0.063500  1.000000 0.05000
H46     2  0.772800  0.425200  0.093900  1.000000 0.06000
C49     1  0.757700  0.379400  0.004600  1.000000 0.05000
H47     2  0.782600  0.442200 -0.005800  1.000000 0.06000
C50     1  0.729400  0.299100 -0.037200  1.000000 0.05000
H48     2  0.735800  0.306400 -0.077000  1.000000 0.06000
C51     1  1.542600  0.467900  0.448200  1.000000 0.05000
H49     2  1.572300  0.445600  0.411500  1.000000 0.06000
C52     1  1.410300  0.468200  0.451300  1.000000 0.05000
H50     2  1.347700  0.445400  0.417300  1.000000 0.06000
C53     1  1.632100  0.498000  0.495500  1.000000 0.05000
H51     2  1.724100  0.496100  0.492500  1.000000 0.06000
C54     1  0.080000  0.023500 -0.042900  1.000000 0.05000
H52     2  0.135800  0.040200 -0.072900  1.000000 0.06000
C55     1 -0.056900  0.009400 -0.053200  1.000000 0.05000
H53     2 -0.096100  0.015700 -0.090200  1.000000 0.06000
C56     1  0.137400  0.013800  0.009500  1.000000 0.05000
H54     2  0.232600  0.023000  0.016000  1.000000 0.06000
C57     1 -0.204800 -0.787800 -0.512400  1.000000 0.05000
C58     1 -0.094100 -0.817500 -0.528900  1.000000 0.05000
C59     1 -0.006300 -0.650200 -0.456900  1.000000 0.05000
C60     1 -0.204200 -0.704200 -0.480100  1.000000 0.05000
C61     1  0.053900 -0.704800 -0.481600  1.000000 0.05000
C62     1  0.028400 -0.775300 -0.518100  1.000000 0.05000
C63     1 -0.111300 -0.643500 -0.459400  1.000000 0.05000
END
