TITL 2000503
CELL 0.71069 12.326 17.177 5.906 90 90 106.4
ZERR 4 0.002 0.0010 0.002 0 0 0.010
LATT 1
SYMM -x,1/2-y,1/2+z
SFAC C H N S
UNIT 56 52 4 4
FVAR 1.00
C1      1  0.234400  0.347600  0.131500  1.000000 0.05000
C2      1  0.198300  0.264600  0.086300  1.000000 0.05000
C3      1  0.130600  0.211600  0.239100  1.000000 0.05000
C4      1  0.097000  0.240200  0.437500  1.000000 0.05000
C5      1  0.132800  0.321800  0.484700  1.000000 0.05000
C6      1  0.201200  0.375100  0.334100  1.000000 0.05000
C7      1  0.414200  0.390000 -0.102300  1.000000 0.05000
C8      1  0.468800  0.347000  0.031900  1.000000 0.05000
C9      1  0.568300  0.333300 -0.043900  1.000000 0.05000
C10     1  0.611300  0.364500 -0.248400  1.000000 0.05000
N11     3  0.561700  0.405800 -0.383600  1.000000 0.05000
C12     1  0.464700  0.416800 -0.309500  1.000000 0.05000
C13     1  0.306400  0.405300 -0.032300  1.000000 0.05000
C14     1  0.275700  0.468300 -0.113900  1.000000 0.05000
S15     4  0.147100  0.488700 -0.055500  1.000000 0.05000
C16     1  0.144000  0.557700 -0.281600  1.000000 0.05000
H2      2  0.220000  0.244000 -0.046000  1.000000 0.06000
H3      2  0.109000  0.156000  0.214000  1.000000 0.06000
H4      2  0.049000  0.205000  0.543000  1.000000 0.06000
H5      2  0.114000  0.342000  0.617000  1.000000 0.06000
H6      2  0.226000  0.432000  0.370000  1.000000 0.06000
H8      2  0.440000  0.329000  0.170000  1.000000 0.06000
H9      2  0.604000  0.305000  0.045000  1.000000 0.06000
H10     2  0.682000  0.357000 -0.312000  1.000000 0.06000
H12     2  0.429000  0.442000 -0.417000  1.000000 0.06000
H14     2  0.322000  0.508000 -0.223000  1.000000 0.06000
H161    2  0.081000  0.573000 -0.266000  1.000000 0.06000
H162    2  0.147000  0.536000 -0.437000  1.000000 0.06000
H163    2  0.206000  0.603000 -0.268000  1.000000 0.06000
END
