TITL 2001914
CELL 0.71073 8.859 10.075 21.189 90 90 95.62
ZERR 4 0.003 0.004 0.007 0.0 0.03 0.0
LATT 1
SYMM 1/2-x,1/2-y,1/2+z
SFAC C H N O
UNIT 84 96 8 16
FVAR 1.00
N1      3  0.148300  0.748900  0.567000  1.000000 0.043000 0.060000 =
        0.061000 -0.015000 0.003000 -0.009000
C2      1  0.231900  0.862600  0.596000  1.000000 0.042000 0.053000 =
        0.046000 -0.007000 0.005000 0.001000
C3      1  0.148800  0.927400  0.648200  1.000000 0.046000 0.062000 =
        0.050000 0.001000 0.001000 -0.006000
C4      1 -0.008400  0.866800  0.646200  1.000000 0.051000 0.087000 =
        0.065000 0.004000 0.018000 -0.010000
C5      1  0.011600  0.719300  0.662900  1.000000 0.070000 0.102000 =
        0.085000 -0.021000 0.008000 0.018000
C6      1  0.111800  0.655700  0.616400  1.000000 0.061000 0.066000 =
        0.092000 -0.021000 0.008000 -0.001000
C7      1  0.004400  0.798900  0.534500  1.000000 0.050000 0.096000 =
        0.062000 -0.015000 0.000000 -0.006000
C8      1 -0.088600  0.877200  0.579000  1.000000 0.047000 0.093000 =
        0.085000 -0.004000 0.001000 -0.012000
C9      1  0.393500  0.824400  0.619800  1.000000 0.040000 0.048000 =
        0.044000 -0.006000 -0.003000 -0.001000
N1'     3  0.656600  0.651300  0.478400  1.000000 0.049000 0.075000 =
        0.061000 -0.008000 0.006000 -0.008000
C2'     1  0.578800  0.760700  0.469100  1.000000 0.051000 0.084000 =
        0.045000 -0.014000 0.003000 0.004000
C3'     1  0.489500  0.816800  0.513300  1.000000 0.041000 0.063000 =
        0.058000 0.000000 -0.002000 0.004000
C4'     1  0.482000  0.757900  0.571100  1.000000 0.033000 0.057000 =
        0.046000 -0.011000 0.002000 -0.006000
C5'     1  0.567100  0.565500  0.640700  1.000000 0.055000 0.055000 =
        0.060000 -0.003000 0.001000 -0.007000
C6'     1  0.649900  0.453100  0.649400  1.000000 0.070000 0.059000 =
        0.072000 0.000000 -0.006000 -0.001000
C7'     1  0.732500  0.405600  0.601400  1.000000 0.062000 0.059000 =
        0.101000 0.001000 -0.009000 -0.003000
C8'     1  0.732900  0.470400  0.545900  1.000000 0.049000 0.066000 =
        0.085000 -0.004000 0.008000 -0.023000
C9'     1  0.648500  0.588500  0.535300  1.000000 0.040000 0.053000 =
        0.064000 -0.012000 -0.003000 -0.012000
C10'    1  0.563100  0.639000  0.583500  1.000000 0.040000 0.046000 =
        0.049000 -0.007000 0.002000 -0.006000
O1      4  0.139100  1.069300  0.635200  1.000000 0.067000 0.065000 =
        0.053000 0.009000 -0.001000 -0.012000
C10     1  0.155900  1.153800  0.683700  1.000000 0.068000
O2      4  0.172300  1.116500  0.737500  1.000000 0.115000
C11     1  0.151800  1.296300  0.663000  1.000000 0.083000
O3      4  0.466500  0.951800  0.636800  1.000000 0.053000
C12     1  0.581100  0.953100  0.682500  1.000000 0.057000
O4      4  0.623000  0.856100  0.711900  1.000000 0.088000
C13     1  0.649400  1.088600  0.690400  1.000000 0.074000
H2      2  0.237000  0.921000  0.563000  1.000000 0.021000
H3      2  0.211000  0.919000  0.693000  1.000000 0.044000
H4      2 -0.064000  0.918000  0.673000  1.000000 0.057000
H5A     2  0.056000  0.717000  0.703000  1.000000 0.066000
H5B     2 -0.088000  0.677000  0.659000  1.000000 0.100000
H6A     2  0.063000  0.586000  0.594000  1.000000 0.055000
H6B     2  0.219000  0.618000  0.643000  1.000000 0.120000
H7A     2  0.026000  0.856000  0.497000  1.000000 0.090000
H7B     2 -0.045000  0.717000  0.517000  1.000000 0.090000
H8A     2 -0.102000  0.969000  0.570000  1.000000 0.090000
H8B     2 -0.194000  0.840000  0.579000  1.000000 0.080000
H9      2  0.400000  0.770000  0.663000  1.000000 0.050000
H2'     2  0.580000  0.809000  0.426000  1.000000 0.060000
H3'     2  0.439000  0.897000  0.503000  1.000000 0.046000
H5'     2  0.509000  0.601000  0.673000  1.000000 0.043000
H6'     2  0.650000  0.407000  0.691000  1.000000 0.090000
H7'     2  0.792000  0.328000  0.611000  1.000000 0.110000
H8'     2  0.783000  0.442000  0.510000  1.000000 0.070000
H11A    2  0.165000  1.353000  0.700000  1.000000 0.190000
H11B    2  0.056000  1.315000  0.640000  1.000000 0.250000
H11C    2  0.232000  1.312000  0.637000  1.000000 0.290000
H13A    2  0.731000  1.087000  0.724000  1.000000 0.110000
H13B    2  0.574000  1.150000  0.701000  1.000000 0.190000
H13C    2  0.687000  1.116000  0.651000  1.000000 0.190000
END
