TITL 2001614
CELL 0.71069 14.904 23.169 9.262 90 90 90
ZERR 2 0.005 0.007 0.003 0 0 0
LATT -1
SYMM -x,-y,z
SFAC C H N O P Ag
UNIT 72 60 2 6 4 2
FVAR 1.00
Ag    6  0.612000  0.534280  0.519000  1.000000 0.297000
P1    5  0.610430  0.637550  0.463070  1.000000 0.278000
P2    5  0.752750  0.483490  0.552720  1.000000 0.269000
C11   1  0.515100  0.666400  0.362000  1.000000 0.267000
C12   1  0.522600  0.700000  0.239800  1.000000 0.347000
C13   1  0.446500  0.722600  0.175200  1.000000 0.480000
C14   1  0.363000  0.712400  0.233900  1.000000 0.510000
C15   1  0.354700  0.678500  0.353400  1.000000 0.510000
C16   1  0.430300  0.655500  0.416800  1.000000 0.425000
C21   1  0.708400  0.656200  0.354600  1.000000 0.321000
C22   1  0.721100  0.624400  0.228600  1.000000 0.431000
C23   1  0.797500  0.632700  0.143900  1.000000 0.570000
C24   1  0.862500  0.671900  0.190100  1.000000 0.590000
C25   1  0.851400  0.702400  0.316400  1.000000 0.510000
C26   1  0.774400  0.694900  0.400400  1.000000 0.404000
C31   1  0.613700  0.686200  0.617100  1.000000 0.315000
C32   1  0.603300  0.745300  0.603200  1.000000 0.403000
C33   1  0.605500  0.780900  0.722800  1.000000 0.480000
C34   1  0.617500  0.757500  0.856800  1.000000 0.570000
C35   1  0.626700  0.699500  0.873200  1.000000 0.650000
C36   1  0.625500  0.662700  0.753000  1.000000 0.471000
C41   1  0.750400  0.417100  0.660300  1.000000 0.292000
C42   1  0.675200  0.406200  0.741900  1.000000 0.408000
C43   1  0.670100  0.357800  0.828500  1.000000 0.530000
C44   1  0.740000  0.320200  0.835600  1.000000 0.480000
C45   1  0.815500  0.330800  0.756000  1.000000 0.500000
C46   1  0.821000  0.378800  0.667700  1.000000 0.448000
C51   1  0.808700  0.463100  0.386200  1.000000 0.296000
C52   1  0.754700  0.454500  0.263200  1.000000 0.352000
C53   1  0.793100  0.438000  0.136700  1.000000 0.500000
C54   1  0.883800  0.428900  0.124000  1.000000 0.468000
C55   1  0.937700  0.437600  0.244000  1.000000 0.417000
C56   1  0.901100  0.454500  0.373400  1.000000 0.332000
C61   1  0.835200  0.528700  0.645200  1.000000 0.269000
C62   1  0.860100  0.518900  0.787300  1.000000 0.365000
C63   1  0.916800  0.557300  0.857000  1.000000 0.440000
C64   1  0.947000  0.605400  0.790500  1.000000 0.443000
C65   1  0.921800  0.615500  0.647700  1.000000 0.462000
C66   1  0.867100  0.577300  0.577300  1.000000 0.388000
N1)   3  0.500000  0.500000  0.812900  0.500000 0.480000
N2)   3  0.500000  0.500000  0.229100  0.500000 0.520000
O1)   4  0.564400  0.525300  0.881300  1.000000 0.410000
O2)   4  0.500000  0.500000  0.673900  0.500000 0.367000
O3)   4  0.566400  0.521800  0.157500  1.000000 0.408000
O4)   4  0.500000  0.500000  0.363800  0.500000 0.367000
H12   2  0.580700  0.707300  0.199100  1.000000 0.06000
H13   2  0.451900  0.745800  0.089700  1.000000 0.06000
H14   2  0.310500  0.728900  0.190200  1.000000 0.06000
H15   2  0.296700  0.670900  0.394400  1.000000 0.06000
H16   2  0.425000  0.631000  0.499800  1.000000 0.06000
H22   2  0.676900  0.596400  0.200700  1.000000 0.06000
H23   2  0.805400  0.611500  0.055700  1.000000 0.06000
H24   2  0.915300  0.677900  0.132700  1.000000 0.06000
H25   2  0.897300  0.728600  0.347400  1.000000 0.06000
H26   2  0.766200  0.716200  0.488300  1.000000 0.06000
H32   2  0.595000  0.761600  0.508800  1.000000 0.06000
H33   2  0.599700  0.821900  0.712000  1.000000 0.06000
H34   2  0.617400  0.781800  0.940700  1.000000 0.06000
H35   2  0.634800  0.683500  0.967900  1.000000 0.06000
H36   2  0.633100  0.621800  0.764200  1.000000 0.06000
H42   2  0.625600  0.432500  0.736000  1.000000 0.06000
H43   2  0.617300  0.351000  0.885400  1.000000 0.06000
H44   2  0.736500  0.286300  0.894900  1.000000 0.06000
H45   2  0.865600  0.305000  0.763600  1.000000 0.06000
H46   2  0.873700  0.385400  0.610500  1.000000 0.06000
H52   2  0.691000  0.460000  0.269400  1.000000 0.06000
H53   2  0.755900  0.432600  0.053100  1.000000 0.06000
H54   2  0.909500  0.416600  0.034000  1.000000 0.06000
H55   2  1.001400  0.431800  0.236500  1.000000 0.06000
H56   2  0.939000  0.460300  0.456000  1.000000 0.06000
H62   2  0.837800  0.485500  0.836900  1.000000 0.06000
H63   2  0.935200  0.546900  0.954500  1.000000 0.06000
H64   2  0.985000  0.632300  0.840400  1.000000 0.06000
H65   2  0.942900  0.649500  0.598800  1.000000 0.06000
H66   2  0.850100  0.584400  0.478900  1.000000 0.06000
END
