TITL 2004506
CELL 0.71073 13.113 13.315 7.405 90 90 91.39
ZERR 4 0.003 0.003 0.002 0.00 0.00 0.03
LATT 1
SYMM 1/2-x,1/2-y,z
SFAC C H P Cl Sn
UNIT 48 40 2 10 2
FVAR 1.00
Sn      5  0.250000  0.250000  0.083920  0.500000 0.050500 0.043600 =
        0.037700 0.000000 0.000000 0.000600
Cl1     4  0.182000  0.081900  0.095300  1.000000 0.105000 0.052400 =
        0.083000 -0.003200 0.007000 -0.015200
Cl2     4  0.104100  0.303300  0.234300  1.000000 0.090000 0.089000 =
        0.105000 -0.022000 0.043000 0.002000
Cl3     4  0.250000  0.250000 -0.225800  0.500000 0.091000 0.104000 =
        0.042000 0.000000 0.000000 0.001000
P       3  0.750000  0.250000  0.057700  0.500000 0.041000 0.039000 =
        0.041000 0.000000 0.000000 0.000400
C1      1  0.649000  0.207100 -0.088700  1.000000 0.039000 0.046000 =
        0.041000 0.003000 -0.001000 0.001000
C2      1  0.612300  0.108800 -0.084900  1.000000 0.050000 0.044000 =
        0.054000 0.008000 0.001000 -0.004000
C3      1  0.536600  0.078800 -0.203400  1.000000 0.064000 0.047000 =
        0.062000 0.001000 -0.009000 -0.012000
C4      1  0.498300  0.147200 -0.322600  1.000000 0.051000 0.071000 =
        0.060000 -0.004000 -0.013000 -0.004000
C5      1  0.535000  0.242400 -0.329800  1.000000 0.066000 0.069000 =
        0.055000 0.003000 -0.023000 0.002000
C6      1  0.611000  0.274300 -0.213800  1.000000 0.061000 0.050000 =
        0.057000 0.009000 -0.010000 -0.007000
C7      1  0.709200  0.349800  0.201500  1.000000 0.048000 0.037000 =
        0.040000 -0.001000 0.011000 -0.001000
C8      1  0.779200  0.386000  0.330600  1.000000 0.054000 0.057000 =
        0.050000 -0.011000 -0.004000 -0.003000
C9      1  0.750100  0.463100  0.445900  1.000000 0.072000 0.064000 =
        0.042000 -0.010000 -0.002000 -0.009000
C10     1  0.656100  0.503200  0.431000  1.000000 0.085000 0.052000 =
        0.060000 0.009000 0.026000 0.000000
C11     1  0.586300  0.466300  0.306100  1.000000 0.070000 0.057000 =
        0.065000 0.003000 0.019000 0.014000
C12     1  0.612800  0.388600  0.190600  1.000000 0.043000 0.054000 =
        0.051000 0.001000 0.007000 -0.004000
H2      2  0.638700  0.063300 -0.003000  1.000000 0.064000
H3      2  0.511500  0.012900 -0.202600  1.000000 0.075000
H4      2  0.445800  0.127400 -0.400200  1.000000 0.079000
H5      2  0.508900  0.286900 -0.413800  1.000000 0.082000
H6      2  0.636600  0.339900 -0.219100  1.000000 0.073000
H8      2  0.843800  0.359100  0.339200  1.000000 0.070000
H9      2  0.795200  0.487200  0.533400  1.000000 0.078000
H10     2  0.638400  0.556100  0.505900  1.000000 0.086000
H11     2  0.521700  0.493400  0.299200  1.000000 0.083000
H12     2  0.565900  0.363200  0.106900  1.000000 0.064000
END
