TITL 2020192
CELL 0.71073 15.636 14.627 3.847 90 90 97.38
ZERR 4 0.000 0.000 0.000 0 0 0.00
LATT 1
SYMM -x,-y,z
SFAC S In Sn
UNIT 22 11 8
FVAR 1.00
In2     2  0.392370  0.911520  0.000000  0.500000 0.000000
Sn1     3  0.197900  0.254400  0.000000  0.500000 0.000000
S1      1  0.058900  0.305900  0.500000  0.500000 0.000000
S2      1  0.095800  0.862300  0.000000  0.500000 0.000000
In4     2  0.187680  0.939200  0.500000  0.500000 0.000000
S10     1  0.320700  0.285300  0.500000  0.500000 0.000000
S7      1  0.416800  0.569400  0.500000  0.500000 0.000000
Sn3     3  0.416500  0.410100  0.100000  0.375000 0.000000
In3     2  0.595040  0.851530  0.500000  0.500000 0.000000
In6     2  0.055470  0.682860  0.000000  0.500000 0.000000
S9      1  0.157800  0.648400  0.500000  0.500000 0.000000
Sn2     3  0.328600  0.637800  0.000000  0.500000 0.000000
In5     2  0.126090  0.474380  0.500000  0.500000 0.000000
S5      1  0.302200  0.838000  0.500000  0.500000 0.000000
S12     1  0.000000  0.500000  0.000000  0.250000 0.000000
S6      1  0.493800  0.786500  0.000000  0.500000 0.000000
S4      1  0.229600  0.451600  0.000000  0.500000 0.000000
S3      1  0.103600  1.072200  0.500000  0.500000 0.000000
In1     2  0.000000  1.000000  0.000000  0.250000 0.000000
S8      1  0.308900  1.054000  0.000000  0.500000 0.000000
S11     1  0.500000  1.000000 -0.500000  0.250000 0.000000
END
