TITL 2300116
CELL 0.71073 3.195 3.195 5.1027 90 90 120
ZERR 12 0.0003 0.0003 0.0004 0.00 0.00 0.00
LATT -1
SYMM -y,x-y,z
SYMM -x+y,-x,z
SYMM -x,-y,1/2+z
SYMM y,-x+y,1/2+z
SYMM x-y,x,1/2+z
SYMM -y,-x,z
SYMM -x+y,y,z
SYMM x,x-y,z
SYMM y,x,1/2+z
SYMM x-y,-y,1/2+z
SYMM -x,-x+y,1/2+z
SFAC O Zn
UNIT 2 2
FVAR 1.00
Zn      2  0.3333  0.6667  0.000000  0.166667 0.006900 0.006900 =
        0.006600 0.000000 0.000000 0.003500
O       1  0.3333  0.6667  0.3813  0.166667 0.007000 0.007000 =
        0.008000 0.000000 0.000000 0.003700
END
