TITL 4109837
CELL 0.71073 8.5877 14.5481 10.6914 90 111.76 90
ZERR 4 0.0003 0.0005 0.0003 0.00 0.0010 0.00
LATT 1
SYMM 1/2-x,1/2+y,1/2-z
SFAC C H O
UNIT 60 88 8
FVAR 1.00
O1      3  0.722080  0.343230  0.144150  1.000000 0.024100 0.013800 =
        0.019900 0.001300 0.006600 0.004800
O2      3  0.651020  0.195490  0.361190  1.000000 0.013200 0.012100 =
        0.017500 -0.001100 0.006700 0.000800
C1      1  0.821270  0.279410  0.170870  1.000000 0.013900 0.009900 =
        0.013900 -0.001500 0.003600 -0.002800
C2      1  0.889920  0.245990  0.070150  1.000000 0.015500 0.012200 =
        0.012200 0.000100 0.004800 -0.002100
H2      2  0.911600  0.296400  0.015100  1.000000 0.016000
C3      1  1.023000  0.170830  0.107740  1.000000 0.013000 0.016800 =
        0.013700 -0.000800 0.005800 -0.000600
H3      2  1.118700  0.181300  0.077500  1.000000 0.017000
C4      1  1.066970  0.123570  0.242270  1.000000 0.011800 0.017300 =
        0.013900 0.000400 0.004800 0.002300
H4A     2  1.179600  0.144800  0.302000  1.000000 0.017000
H4B     2  1.074800  0.056700  0.228500  1.000000 0.017000
C5      1  0.945320  0.138630  0.315550  1.000000 0.011100 0.012700 =
        0.010800 0.000100 0.003400 0.001200
H5      2  1.009800  0.123500  0.412300  1.000000 0.014000
C6      1  0.897310  0.240230  0.312490  1.000000 0.012200 0.012300 =
        0.011300 -0.001900 0.003500 -0.001100
H8      2  1.004400  0.274500  0.358300  1.000000 0.015000
C7      1  0.791230  0.255990  0.397300  1.000000 0.016200 0.013800 =
        0.015100 -0.003600 0.006800 -0.001400
H7A     2  0.861700  0.246900  0.493500  1.000000 0.018000
H7B     2  0.750800  0.320300  0.385800  1.000000 0.018000
C8      1  0.692000  0.098590  0.368160  1.000000 0.013800 0.011800 =
        0.012000 0.000400 0.005400 0.000600
C9      1  0.786560  0.078590  0.272090  1.000000 0.013100 0.010800 =
        0.011000 0.000300 0.004700 0.000400
H9      2  0.822700  0.012800  0.284200  1.000000 0.014000
C10     1  0.668240  0.091510  0.125320  1.000000 0.013200 0.014000 =
        0.011200 -0.000800 0.004100 -0.002900
H10A    2  0.574000  0.047800  0.106700  1.000000 0.015000
H10B    2  0.620600  0.154300  0.115900  1.000000 0.015000
C11     1  0.742400  0.078670  0.017070  1.000000 0.018000 0.013600 =
        0.011700 -0.002100 0.005800 -0.003500
H11A    2  0.805100  0.019900  0.035800  1.000000 0.017000
H11B    2  0.647800  0.071300 -0.070200  1.000000 0.017000
C12     1  0.857750  0.151860 -0.001630  1.000000 0.015100 0.012900 =
        0.011400 -0.001400 0.005400 -0.001200
C13     1  0.853140  0.154880 -0.144700  1.000000 0.020300 0.019200 =
        0.012500 -0.001300 0.007700 -0.002100
H13A    2  0.931000  0.202100 -0.151600  1.000000 0.025000
H13B    2  0.739300  0.169700 -0.206500  1.000000 0.025000
H13C    2  0.886200  0.094900 -0.168400  1.000000 0.025000
C14     1  0.521450  0.051310  0.324180  1.000000 0.015500 0.019100 =
        0.017200 -0.000200 0.007700 -0.002600
H14A    2  0.473100  0.060300  0.393200  1.000000 0.025000
H14B    2  0.535200 -0.014600  0.312300  1.000000 0.025000
H14C    2  0.446500  0.077800  0.238800  1.000000 0.025000
C15     1  0.792580  0.068960  0.513160  1.000000 0.019000 0.020700 =
        0.012600 0.002500 0.006400 0.001500
H15A    2  0.902200  0.099400  0.545000  1.000000 0.026000
H15B    2  0.808300  0.002200  0.516400  1.000000 0.026000
H15C    2  0.731600  0.086400  0.571000  1.000000 0.026000
END
