TITL 4109834
CELL 1.181 5.959 7.596 15.6096 81.25 86.56 89.8
ZERR 2 0.000 0.000 0.0000 0.00 0.00 0.00
LATT 1
SFAC C H
UNIT 44 28
FVAR 1.00
C1      1  0.205700 -0.090500 -0.006000  1.000000 0.048200
C2      1  0.114900 -0.069200  0.076300  1.000000 0.048200
C3      1  0.217600 -0.132700  0.153200  1.000000 0.048200
C4      1  0.121700 -0.108300  0.234000  1.000000 0.048200
C5      1  0.232000 -0.172500  0.312500  1.000000 0.048200
C6      1  0.140600 -0.148000  0.390600  1.000000 0.048200
C7      1 -0.071700 -0.057200  0.397500  1.000000 0.048200
C8      1 -0.179300  0.005600  0.324600  1.000000 0.048200
C9      1 -0.087900 -0.015300  0.239200  1.000000 0.048200
C10     1 -0.191800  0.047600  0.165000  1.000000 0.048200
C11     1 -0.098300  0.024100  0.082500  1.000000 0.048200
H1      2  0.341300 -0.150400 -0.010600  1.000000 0.048200
H3      2  0.353400 -0.192700  0.150200  1.000000 0.048200
H5      2  0.368500 -0.231600  0.309000  1.000000 0.048200
H6      2  0.214300 -0.189800  0.440400  1.000000 0.048200
H7      2 -0.134900 -0.041600  0.451800  1.000000 0.048200
H8      2 -0.315900  0.063800  0.330100  1.000000 0.048200
H10     2 -0.327600  0.107400  0.169200  1.000000 0.048200
C12     1  0.705400  0.594300 -0.009600  1.000000 0.048200
C13     1  0.618000  0.529900  0.074300  1.000000 0.048200
C14     1  0.723400  0.554500  0.149300  1.000000 0.048200
C15     1  0.630500  0.488500  0.231800  1.000000 0.048200
C16     1  0.740300  0.517600  0.308500  1.000000 0.048200
C17     1  0.650000  0.455200  0.388200  1.000000 0.048200
C18     1  0.440800  0.356500  0.398800  1.000000 0.048200
C19     1  0.332800  0.327700  0.327700  1.000000 0.048200
C20     1  0.420600  0.393100  0.240700  1.000000 0.048200
C21     1  0.314600  0.367000  0.168400  1.000000 0.048200
C22     1  0.405700  0.432000  0.084200  1.000000 0.048200
H12     2  0.841100  0.656400 -0.016600  1.000000 0.048200
H14     2  0.859100  0.616400  0.143900  1.000000 0.048200
H16     2  0.875300  0.580500  0.302600  1.000000 0.048200
H17     2  0.722700  0.475600  0.436900  1.000000 0.048200
H18     2  0.379900  0.312600  0.454100  1.000000 0.048200
H19     2  0.198200  0.263900  0.335600  1.000000 0.048200
H21     2  0.179000  0.304700  0.174900  1.000000 0.048200
END
