TITL 4300501
CELL 0.71073 9.0484 11.5628 15.6099 76.977 78.666 70.355
ZERR 2 0.0007 0.0009 0.0013 0.002 0.0010 0.002
LATT 1
SFAC C H B N O F S Cu
UNIT 42 72 2 18 10 8 2 2
FVAR 1.00
C1      1  0.024500  0.773200  0.605140  1.000000 0.016500 0.018800 =
        0.019800 0.000100 -0.002600 -0.005300
C2      1  0.236100  0.738500  0.398500  1.000000 0.017500 0.021500 =
        0.018600 -0.003900 -0.002200 -0.005300
C3      1  0.334700  0.813500  0.340290  1.000000 0.016300 0.022000 =
        0.018900 -0.004700 -0.003100 -0.003700
C4      1  0.400700  1.071700  0.393070  1.000000 0.016400 0.020500 =
        0.018700 -0.002500 -0.001900 -0.005300
C5      1  0.486600  1.157600  0.369850  1.000000 0.019800 0.023200 =
        0.021300 -0.002500 0.002400 -0.007500
H5      2  0.556100  1.159200  0.317400  1.000000 0.027000
C6      1  0.466500  1.239300  0.425780  1.000000 0.021000 0.020900 =
        0.024200 0.001100 -0.003800 -0.009900
C7      1  0.359800  1.236500  0.504310  1.000000 0.019500 0.018300 =
        0.019700 -0.001900 -0.005100 -0.005200
C8      1  0.278700  1.150200  0.522210  1.000000 0.019100 0.022800 =
        0.017100 -0.004100 -0.001500 -0.007400
H8      2  0.206700  1.148800  0.573700  1.000000 0.023000
C9      1 -0.097300  0.608400  0.672650  1.000000 0.028500 0.026800 =
        0.026000 0.002900 -0.001900 -0.014000
H9A     2 -0.002400  0.545600  0.654700  1.000000 0.041000
H9B     2 -0.171900  0.626400  0.631800  1.000000 0.041000
H9C     2 -0.142300  0.578800  0.731100  1.000000 0.041000
C10     1  0.221800  0.624500  0.375870  1.000000 0.028500 0.024400 =
        0.022800 -0.006600 0.001400 -0.012100
H10A    2  0.209400  0.639200  0.314300  1.000000 0.037000
H10B    2  0.131300  0.604900  0.411600  1.000000 0.037000
H10C    2  0.315500  0.556000  0.387200  1.000000 0.037000
C11     1  0.426000  0.786700  0.252950  1.000000 0.024600 0.028000 =
        0.021400 -0.008500 0.002200 -0.010700
H11A    2  0.406900  0.862200  0.210000  1.000000 0.036000
H11B    2  0.393100  0.726700  0.234000  1.000000 0.036000
H11C    2  0.536900  0.753800  0.258400  1.000000 0.036000
C12     1  0.328300  1.321500  0.569530  1.000000 0.024900 0.019800 =
        0.021100 -0.000600 -0.007700 -0.006900
N1      4  0.077800  0.718760  0.534530  1.000000 0.020700 0.020200 =
        0.019200 -0.001300 0.000500 -0.010100
N2      4  0.167100  0.780380  0.471630  1.000000 0.019500 0.019000 =
        0.017600 -0.002300 -0.000500 -0.007300
N3      4  0.335000  0.904970  0.375560  1.000000 0.015900 0.020700 =
        0.019800 -0.004100 0.000500 -0.007900
N4      4  0.417200  0.987000  0.340600  1.000000 0.022800 0.023500 =
        0.017600 -0.004300 0.004200 -0.010100
N5      4  0.298300  1.067720  0.469010  1.000000 0.016400 0.020700 =
        0.017300 -0.003200 -0.000600 -0.007200
N6      4 -0.059800  0.721330  0.673220  1.000000 0.026600 0.023500 =
        0.017800 -0.003400 0.002900 -0.011000
O1      5  0.239200  1.312200  0.638220  1.000000 0.041100 0.033200 =
        0.023800 -0.009000 0.003400 -0.021600
O2      5  0.407400  1.402800  0.545160  1.000000 0.034900 0.023600 =
        0.024400 -0.006100 -0.000100 -0.016000
H2      2  0.391500  1.443300  0.584700  1.000000 0.039000
S1      7  0.050710  0.913750  0.618080  1.000000 0.022900 0.021800 =
        0.017200 -0.005200 0.002500 -0.010000
Cu1     8  0.194550  0.935600  0.484654  1.000000 0.019560 0.020030 =
        0.017510 -0.006060 0.003600 -0.009850
H       2 -0.098000  0.757000  0.714800  1.000000 0.026000
H4      2  0.469000  0.990000  0.294000  1.000000 0.034000
H6      2  0.522000  1.295000  0.410700  1.000000 0.020000
C13     1  0.280100  0.509800  0.737210  1.000000 0.027200 0.025000 =
        0.032400 -0.003600 -0.009500 -0.007400
H13     2  0.210400  0.467300  0.735000  1.000000 0.033000
C14     1  0.141500  0.541900  0.883600  1.000000 0.043400 0.052000 =
        0.038600 -0.017900 0.004400 -0.021700
H14A    2  0.153600  0.576000  0.931600  1.000000 0.064000
H14B    2  0.145900  0.456200  0.903900  1.000000 0.064000
H14C    2  0.041300  0.588200  0.863100  1.000000 0.064000
C15     1  0.376000  0.616100  0.818500  1.000000 0.056000 0.065000 =
        0.045000 -0.029600 0.009400 -0.038200
H15A    2  0.331500  0.703500  0.797200  1.000000 0.074000
H15B    2  0.476100  0.584700  0.783600  1.000000 0.074000
H15C    2  0.391100  0.603500  0.879400  1.000000 0.074000
N7      4  0.269200  0.550200  0.810990  1.000000 0.031600 0.030700 =
        0.027100 -0.008200 -0.003000 -0.012300
O3      5  0.376300  0.524000  0.670200  1.000000 0.038500 0.029000 =
        0.027300 -0.007100 -0.002500 -0.015300
C16     1  0.305200  0.205900  0.123470  1.000000 0.038100 0.032700 =
        0.028100 -0.006000 -0.002100 -0.012100
H16     2  0.356000  0.244600  0.149100  1.000000 0.039000
C17     1  0.471400  0.251600 -0.014000  1.000000 0.041700 0.059000 =
        0.039100 -0.008400 0.010400 -0.025300
H17A    2  0.506100  0.291600  0.022400  1.000000 0.069000
H17B    2  0.428200  0.311800 -0.063300  1.000000 0.069000
H17C    2  0.559600  0.186600 -0.035600  1.000000 0.069000
C18     1  0.276500  0.141600 -0.008000  1.000000 0.065000 0.107000 =
        0.042600 -0.035000 0.014900 -0.054000
H18A    2  0.202100  0.205600 -0.042700  1.000000 0.096000
H18B    2  0.222300  0.090300  0.034400  1.000000 0.096000
H18C    2  0.356200  0.091200 -0.046300  1.000000 0.096000
N8      4  0.350400  0.198400  0.038200  1.000000 0.035200 0.045600 =
        0.022900 -0.010200 0.004400 -0.019000
O4      5  0.201500  0.165800  0.171440  1.000000 0.056500 0.049900 =
        0.031000 -0.013200 0.015600 -0.030200
C19     1  0.222000  0.061600  0.791150  1.000000 0.041300 0.034500 =
        0.021600 -0.005000 0.000200 -0.018300
H19     2  0.201400  0.136700  0.751600  1.000000 0.038000
C20     1 -0.060600  0.093900  0.815700  1.000000 0.035900 0.033800 =
        0.045400 -0.006500 -0.009200 -0.006100
H20A    2 -0.060800  0.167900  0.772900  1.000000 0.059000
H20B    2 -0.124200  0.116600  0.869900  1.000000 0.059000
H20C    2 -0.103300  0.042900  0.793200  1.000000 0.059000
C21     1  0.122000 -0.090800  0.895900  1.000000 0.032500 0.035500 =
        0.055300 0.008600 0.003400 -0.009100
H21A    2  0.084300 -0.146400  0.875100  1.000000 0.068000
H21B    2  0.063300 -0.073800  0.952400  1.000000 0.068000
H21C    2  0.232300 -0.128700  0.902000  1.000000 0.068000
N9      4  0.101000  0.024630  0.832870  1.000000 0.027800 0.024400 =
        0.028000 -0.003000 0.000200 -0.009500
O5      5  0.363500  0.002810  0.800740  1.000000 0.029600 0.049100 =
        0.030900 -0.011000 0.007300 -0.018300
B1      3  0.189000  0.610600  0.110500  1.000000 0.042400 0.033300 =
        0.027100 -0.003300 -0.003600 -0.017900
F1      6  0.226200  0.487780  0.099870  1.000000 0.063300 0.033200 =
        0.044400 -0.009400 -0.004400 -0.018900
F2      6  0.297600  0.620630  0.157910  1.000000 0.059600 0.062400 =
        0.046000 -0.018600 -0.013100 -0.024300
F3      6  0.039900  0.645610  0.159400  1.000000 0.047500 0.053300 =
        0.080700 -0.025300 0.013600 -0.023800
F4      6  0.192100  0.686970  0.030480  1.000000 0.104200 0.050900 =
        0.034400 0.009100 -0.014600 -0.038200
END
