TITL 4300483
CELL 0.71073 11.561 12.6399 13.2156 90 90 90
ZERR 8 0.0015 0.0017 0.0017 0.00 0.00 0.00
LATT 1
SYMM 1/2-x,-y,1/2+z
SYMM -x,1/2+y,1/2-z
SYMM 1/2+x,1/2-y,-z
SFAC C H N O Cl Au
UNIT 16 96 16 16 24 8
FVAR 1.00
Au1     6  0.246508  0.205071  0.421730  1.000000 0.006400 0.007810 =
        0.009800 0.000030 -0.000210 0.000000
Cl1     5  0.412110  0.140660  0.350930  1.000000 0.008700 0.014500 =
        0.016200 -0.000200 0.001800 0.001700
Cl2     5  0.264620  0.108030  0.566610  1.000000 0.017200 0.012900 =
        0.012600 0.002200 0.000400 0.002300
N1      3  0.221200  0.298000  0.298500  1.000000 0.010000 0.008300 =
        0.014500 0.000300 -0.001900 0.001000
H1A     2  0.228000  0.253000  0.243000  1.000000 0.013000
H1B     2  0.269000  0.344000  0.302000  1.000000 0.013000
C2      1  0.102500  0.345600  0.304400  1.000000 0.009800 0.019000 =
        0.015500 0.001400 -0.000900 0.004100
H2A     2  0.043900  0.294400  0.280300  1.000000 0.018000
H2B     2  0.098100  0.409800  0.261600  1.000000 0.018000
C3      1  0.080400  0.373700  0.413400  1.000000 0.012000 0.009000 =
        0.019000 -0.000800 0.002000 0.004200
H3A     2  0.133100  0.431000  0.435200  1.000000 0.016000
H3B     2 -0.000300  0.398200  0.422200  1.000000 0.016000
N4      3  0.101300  0.276100  0.475100  1.000000 0.008600 0.012900 =
        0.014800 -0.003000 0.000800 0.000600
H4A     2  0.114000  0.294000  0.533000  1.000000 0.015000
H4B     2  0.047000  0.236000  0.469000  1.000000 0.013000
Cl3     5  0.111980 -0.004810  0.330450  1.000000 0.011500 0.013700 =
        0.015500 0.000100 0.000800 0.000800
O1S     4 -0.080200  0.116900  0.450600  1.000000 0.014500 0.013700 =
        0.017000 0.000300 0.002200 0.003200
H1S1    2 -0.042000  0.079000  0.415000  1.000000 0.018000
H1S2    2 -0.095000  0.081000  0.500000  1.000000 0.040000
O2S     4  0.206800  0.141900  0.149600  1.000000 0.013700 0.010800 =
        0.016100 0.003500 0.002500 0.000700
H2S1    2  0.186000  0.101000  0.175000  1.000000 0.016000
H2S2    2  0.271000  0.136000  0.130000  1.000000 0.016000
END
