TITL 4312876
CELL 0.71073 8.705 9.16 15.84 82.77 85.05 81.09
ZERR 2 0.002 0.002 0.004 0.03 0.03 0.03
LATT 1
SFAC C H N O Na Nd
UNIT 32 68 8 26 2 2
FVAR 1.00
Nd      6  0.585845  0.252855  0.308312  1.000000 0.021040 0.020660 =
        0.017550 -0.001410 -0.002630 -0.001270
Na      5  0.630580  0.177490  0.599500  1.000000 0.041300 0.046800 =
        0.033100 -0.001200 0.002700 -0.002300
O1B     4  0.686300  0.162120  0.446360  1.000000 0.033100 0.035400 =
        0.022200 -0.001500 -0.003800 0.004600
O4B     4  0.535100  0.490990  0.364130  1.000000 0.028400 0.027900 =
        0.036800 -0.009600 -0.000700 -0.002100
O7B     4  0.363100  0.334500  0.225320  1.000000 0.029400 0.041700 =
        0.028700 0.004800 -0.005700 -0.003400
O10B    4  0.502300  0.013310  0.309550  1.000000 0.038800 0.029000 =
        0.024600 -0.003700 -0.002500 -0.009200
O10A    4  0.384100 -0.133600  0.244270  1.000000 0.062200 0.040600 =
        0.036800 -0.004300 -0.006700 -0.023900
N1      3  0.849400  0.055600  0.304110  1.000000 0.025800 0.025900 =
        0.023500 -0.003900 -0.002600 0.000600
N4      3  0.841600  0.381600  0.319500  1.000000 0.024300 0.026000 =
        0.025800 -0.001900 -0.002400 -0.002200
N7      3  0.634300  0.455800  0.174370  1.000000 0.028300 0.025800 =
        0.022500 -0.000100 -0.001500 -0.002800
N10     3  0.643800  0.132500  0.157810  1.000000 0.028500 0.029200 =
        0.020300 -0.002300 -0.001400 -0.002200
O1A     4  0.804500 -0.016900  0.535610  1.000000 0.037100 0.038800 =
        0.024300 0.005900 -0.006600 -0.004500
O4A     4  0.606100  0.672300  0.425460  1.000000 0.048100 0.030900 =
        0.039900 -0.013700 -0.007100 -0.000200
O7A     4  0.241500  0.472600  0.119170  1.000000 0.040500 0.046400 =
        0.048600 0.005400 -0.023000 -0.001300
C1      1  0.854300 -0.037500  0.387520  1.000000 0.033100 0.026400 =
        0.028100 0.000800 -0.006000 0.002400
C1A     1  0.778100  0.041900  0.462110  1.000000 0.023900 0.032200 =
        0.025600 0.001200 -0.004700 -0.007300
C2      1  0.987400  0.135700  0.288380  1.000000 0.023600 0.033600 =
        0.033000 -0.002400 0.000300 0.001200
C3      1  0.977600  0.266100  0.339900  1.000000 0.021800 0.031900 =
        0.034400 -0.002700 -0.005900 -0.001700
C4A     1  0.635600  0.553500  0.393230  1.000000 0.034100 0.024300 =
        0.022400 -0.000900 -0.000900 -0.003800
C4      1  0.803400  0.475300  0.390130  1.000000 0.032800 0.030900 =
        0.035400 -0.008900 -0.007200 -0.005900
C5      1  0.880100  0.474600  0.239190  1.000000 0.027900 0.033900 =
        0.034300 0.001800 -0.000300 -0.009700
C6      1  0.737500  0.558200  0.195850  1.000000 0.035900 0.026100 =
        0.029300 0.004500 -0.000300 -0.008000
C7      1  0.479200  0.539500  0.155260  1.000000 0.034800 0.029800 =
        0.031100 0.004100 -0.009400 0.001000
C7A     1  0.351200  0.441400  0.166860  1.000000 0.031100 0.030200 =
        0.026300 -0.004400 -0.006100 0.004600
C8      1  0.705500  0.382800  0.098800  1.000000 0.040000 0.033700 =
        0.022200 0.000300 0.004500 -0.005500
C9      1  0.630400  0.251000  0.083810  1.000000 0.037100 0.034400 =
        0.016000 -0.003400 0.000600 -0.001500
C10A    1  0.467300 -0.034400  0.242900  1.000000 0.033400 0.023900 =
        0.030500 -0.003400 -0.005100 -0.003100
C10     1  0.524100  0.036000  0.156180  1.000000 0.040600 0.037400 =
        0.025200 -0.009400 -0.003800 -0.011300
C11     1  0.802300  0.044800  0.151930  1.000000 0.034100 0.035900 =
        0.026900 -0.008300 0.000400 0.003200
C12     1  0.849100 -0.042000  0.235970  1.000000 0.032600 0.028500 =
        0.031100 -0.008700 -0.002500 0.006200
OW1     4  0.352300  0.260200  0.413020  1.000000 0.033600 0.043100 =
        0.026900 -0.006500 0.002100 -0.014200
H6      2  0.678000  0.626000  0.233000  1.000000 0.024000
H11     2  0.874000  0.114000  0.133400  1.000000 0.024000
H       2  0.798000 -0.117000  0.385800  1.000000 0.034000
H12     2  0.771000 -0.110000  0.254600  1.000000 0.033000
H61     2  0.773000  0.619000  0.146000  1.000000 0.038000
H9      2  0.515000  0.278000  0.075900  1.000000 0.025000
H5      2  0.939000  0.409000  0.199000  1.000000 0.028000
H121    2  0.946000 -0.098000  0.225500  1.000000 0.029000
H3      2  0.972000  0.230000  0.400700  1.000000 0.029000
H10     2  0.562000 -0.037000  0.120000  1.000000 0.039000
H2      2  0.997000  0.168000  0.229700  1.000000 0.026000
H8      2  0.818000  0.352000  0.106300  1.000000 0.036000
H7      2  0.455000  0.611000  0.196000  1.000000 0.042000
H111    2  0.804000 -0.027000  0.109800  1.000000 0.033000
H101    2  0.434000  0.097000  0.133000  1.000000 0.048000
H102    2  0.311000  0.198000  0.423000  1.000000 0.038000
H40     2  0.816000  0.411000  0.442000  1.000000 0.039000
H41     2  0.874000  0.546000  0.389000  1.000000 0.049000
H21     2  1.076000  0.065000  0.301300  1.000000 0.037000
H31     2  1.077000  0.307000  0.326500  1.000000 0.031000
H51     2  0.947000  0.545000  0.249900  1.000000 0.039000
H81     2  0.692000  0.456000  0.049000  1.000000 0.041000
H91     2  0.680000  0.214000  0.033000  1.000000 0.041000
H71     2  0.483000  0.590000  0.097000  1.000000 0.050000
H103    2  0.364000  0.282000  0.455000  1.000000 0.045000
H100    2  0.962000 -0.079000  0.398300  1.000000 0.039000
OW2     4  0.784700  0.369000  0.621600  1.000000 0.053200 0.076000 =
        0.111000 -0.026000 0.015300 -0.005200
H200    2  0.801000  0.348000  0.673000  1.000000 0.140000
H201    2  0.709000  0.418000  0.621000  1.000000 0.100000
OW3     4  0.202400 -0.069600  0.099900  1.000000 0.069300 0.059000 =
        0.067400 -0.011000 -0.025000 -0.009800
H300    2  0.256000 -0.099000  0.143000  1.000000 0.096000
H301    2  0.192000  0.001000  0.096000  1.000000 0.080000
OW4     4  0.026700  0.720600  0.075120  1.000000 0.043900 0.044800 =
        0.071900 0.000400 -0.012000 0.001600
H400    2  0.078000  0.779000  0.074000  1.000000 0.092000
H401    2  0.082000  0.649000  0.084000  1.000000 0.061000
OW5     4  0.129600  0.234000  0.068700  1.000000 0.109000 0.067800 =
        0.091000 0.002700 -0.036000 -0.031300
H500    2  0.185000  0.318000  0.079000  1.000000 0.099000
H501    2  0.207000  0.231000  0.024500  1.000000 0.000000
END
