TITL 4500011
CELL 0.71073 29.191 4.962 20.316 90 92.105 90
ZERR 8 0.016 0.003 0.011 0.00 0.008 0.00
LATT 7
SYMM -x,y,1/2-z
SFAC C H N O
UNIT 152 120 16 16
FVAR 1.00
O1      4  0.450360  1.068100  0.304020  1.000000 0.029100 0.052500 =
        0.027800 -0.007200 -0.003200 -0.005800
N1      3  0.448670  1.082500  0.192530  1.000000 0.026700 0.045500 =
        0.028200 -0.000500 0.000800 -0.007700
H1A     2  0.476500  1.150500  0.191900  1.000000 0.040000
H1B     2  0.433200  1.051000  0.155400  1.000000 0.040000
N2      3  0.385650  0.925700  0.248150  1.000000 0.022300 0.034500 =
        0.023400 -0.002500 -0.000200 -0.000900
C1      1  0.429720  1.026700  0.250690  1.000000 0.026400 0.029700 =
        0.026600 -0.003600 0.000600 0.004700
C2      1  0.360360  0.860500  0.188390  1.000000 0.023200 0.027900 =
        0.020000 -0.000100 0.000400 -0.003500
C3      1  0.375290  0.651600  0.148730  1.000000 0.028000 0.028300 =
        0.027900 0.004400 0.003300 0.000500
H3A     2  0.401200  0.547300  0.162600  1.000000 0.034000
C4      1  0.352820  0.595200  0.089760  1.000000 0.036800 0.029500 =
        0.025300 -0.002100 0.004700 -0.005700
H4A     2  0.363200  0.453100  0.062800  1.000000 0.037000
C5      1  0.315060  0.746400  0.069960  1.000000 0.034800 0.038200 =
        0.024000 0.001100 -0.002100 -0.008000
H5A     2  0.299800  0.710800  0.028800  1.000000 0.039000
C6      1  0.299400  0.949900  0.110040  1.000000 0.027600 0.032800 =
        0.029900 0.005300 -0.000500 -0.000400
H6A     2  0.273200  1.051700  0.096100  1.000000 0.036000
C7      1  0.321380  1.008400  0.170740  1.000000 0.025700 0.023200 =
        0.024100 0.003600 0.000900 -0.004000
C8      1  0.302240  1.215500  0.213260  1.000000 0.028600 0.023700 =
        0.032700 0.004600 0.001700 0.001600
H8A     2  0.287000  1.361900  0.191700  1.000000 0.034000
C9      1  0.303880  1.220700  0.279330  1.000000 0.029300 0.023700 =
        0.033600 -0.001800 0.004800 0.001100
H9A     2  0.289700  1.370800  0.299200  1.000000 0.035000
C10     1  0.324930  1.022600  0.324240  1.000000 0.027100 0.024100 =
        0.025400 -0.003700 0.000400 -0.002700
C11     1  0.305510  0.974100  0.385240  1.000000 0.027800 0.034800 =
        0.030300 -0.003600 0.003100 0.001100
H11A    2  0.280000  1.078400  0.397900  1.000000 0.037000
C12     1  0.322820  0.777400  0.427270  1.000000 0.032200 0.039000 =
        0.027900 -0.001300 0.005400 -0.005900
H12A    2  0.309500  0.749500  0.468700  1.000000 0.039000
C13     1  0.359510  0.620900  0.409450  1.000000 0.039700 0.030600 =
        0.026200 0.002000 -0.005700 -0.006200
H13A    2  0.370800  0.482200  0.437900  1.000000 0.039000
C14     1  0.379730  0.667500  0.349880  1.000000 0.029200 0.032900 =
        0.028300 -0.004800 -0.003200 0.004000
H14A    2  0.404900  0.560100  0.337300  1.000000 0.036000
C15     1  0.363260  0.871000  0.308540  1.000000 0.022400 0.030000 =
        0.020300 -0.002500 -0.002000 -0.005100
O2      4  0.422950  1.062200  0.044270  1.000000 0.039200 0.034100 =
        0.040800 -0.001100 0.004600 0.003100
C16     1  0.435920  0.937100 -0.003180  1.000000 0.031900 0.030500 =
        0.035800 0.001900 -0.000900 -0.006400
H16A    2  0.423800  0.988900 -0.045400  1.000000 0.039000
C17     1  0.468780  0.712200 -0.000330  1.000000 0.023400 0.024500 =
        0.029400 0.001500 0.000300 -0.002400
C18     1  0.488190  0.619100  0.059050  1.000000 0.032800 0.030300 =
        0.027800 -0.002000 0.001400 -0.003800
H18A    2  0.480200  0.700800  0.099300  1.000000 0.036000
C19     1  0.519100  0.407400  0.059320  1.000000 0.029000 0.028400 =
        0.030200 0.005300 -0.003100 -0.004400
H19A    2  0.532100  0.343300  0.099900  1.000000 0.035000
END
