TITL 4505180
CELL 0.71073 9.9313 11.9628 15.316 95.3533 106.63 105.017
ZERR 2 0.0002 0.0002 0.0003 0.0009 0.0010 0.0008
LATT 1
SFAC C H N O
UNIT 72 92 8 4
FVAR 1.00
O1      4 -0.070500 -0.139780  0.666570  1.000000 0.042900 0.074800 =
        0.057100 -0.014200 0.009900 0.002000
N1      3  0.406300  0.217500  1.018790  1.000000 0.048400 0.063700 =
        0.071500 -0.015700 0.014700 0.011800
N2      3  0.558200  0.127350  0.961990  1.000000 0.040400 0.064900 =
        0.056200 -0.002300 0.011900 0.013500
C1      1  0.047800 -0.070100  0.740000  1.000000 0.038200 0.044300 =
        0.048000 0.005600 0.012100 0.004700
C2      1  0.028100 -0.000280  0.812090  1.000000 0.039700 0.040900 =
        0.050200 0.008000 0.017700 0.009400
C3      1  0.155400  0.066400  0.882110  1.000000 0.047300 0.042000 =
        0.047600 0.005000 0.019900 0.012100
C4      1  0.295900  0.067110  0.882260  1.000000 0.041800 0.039900 =
        0.043200 0.005400 0.014100 0.010600
C5      1  0.308900 -0.000910  0.808320  1.000000 0.037900 0.047100 =
        0.051100 0.006900 0.015800 0.013400
C6      1  0.187200 -0.069650  0.735420  1.000000 0.042500 0.043200 =
        0.046600 0.004800 0.014600 0.013700
C7      1  0.205400 -0.138200  0.651530  1.000000 0.049300 0.054400 =
        0.049800 -0.001900 0.015300 0.016500
C8      1  0.129500 -0.271700  0.637900  1.000000 0.097000 0.053200 =
        0.068000 -0.002100 0.019600 0.022400
C9      1  0.142000 -0.092100  0.563850  1.000000 0.077000 0.073900 =
        0.052800 0.007700 0.024000 0.024500
C10     1  0.367800 -0.122600  0.663800  1.000000 0.063000 0.112000 =
        0.078000 -0.020300 0.023400 0.035500
C11     1 -0.124700  0.005800  0.813320  1.000000 0.040800 0.051200 =
        0.061700 0.007900 0.022000 0.010600
C12     1 -0.222100 -0.114500  0.819700  1.000000 0.057600 0.068700 =
        0.085000 0.014000 0.036600 0.005800
C13     1 -0.112500  0.092400  0.897200  1.000000 0.052700 0.074900 =
        0.080000 -0.001100 0.030200 0.020900
C14     1 -0.200900  0.049900  0.726900  1.000000 0.049000 0.077900 =
        0.083000 0.020000 0.021300 0.024600
C15     1  0.427100  0.140980  0.958090  1.000000 0.042300 0.043500 =
        0.046300 0.008600 0.016700 0.011500
C16     1  0.525700  0.282700  1.087100  1.000000 0.057000 0.069000 =
        0.074000 -0.021500 0.017600 0.008400
C17     1  0.662600  0.274300  1.096900  1.000000 0.054200 0.059400 =
        0.055500 -0.003000 0.009800 0.003100
C18     1  0.673900  0.194700  1.031990  1.000000 0.041600 0.074600 =
        0.058200 -0.001900 0.007500 0.009600
H3      2  0.146400  0.112700  0.931200  1.000000 0.054000
H5      2  0.402400 -0.000400  0.807600  1.000000 0.054000
H8A     2  0.143300 -0.311600  0.585300  1.000000 0.113000
H8B     2  0.026100 -0.285700  0.627800  1.000000 0.113000
H8C     2  0.171900 -0.300900  0.692300  1.000000 0.113000
H9A     2  0.153400 -0.135300  0.511800  1.000000 0.100000
H9B     2  0.193400 -0.010200  0.571100  1.000000 0.100000
H9C     2  0.039300 -0.101800  0.553600  1.000000 0.100000
H10A    2  0.376000 -0.166500  0.610900  1.000000 0.128000
H10B    2  0.411100 -0.150700  0.718600  1.000000 0.128000
H10C    2  0.418500 -0.040700  0.669800  1.000000 0.128000
H12A    2 -0.316200 -0.108100  0.820300  1.000000 0.105000
H12B    2 -0.175200 -0.138800  0.875500  1.000000 0.105000
H12C    2 -0.235500 -0.171700  0.767100  1.000000 0.105000
H13A    2 -0.209000  0.094800  0.895500  1.000000 0.102000
H13B    2 -0.053800  0.169400  0.895700  1.000000 0.102000
H13C    2 -0.066800  0.067500  0.953000  1.000000 0.102000
H14A    2 -0.295400  0.054100  0.728700  1.000000 0.103000
H14B    2 -0.213800 -0.003500  0.672200  1.000000 0.103000
H14C    2 -0.141200  0.126600  0.725700  1.000000 0.103000
H16     2  0.514800  0.336800  1.130300  1.000000 0.087000
H17     2  0.744500  0.320600  1.145500  1.000000 0.074000
H18     2  0.766400  0.187000  1.036700  1.000000 0.075000
O2      4  0.488500  0.362290  0.844370  1.000000 0.064500 0.084600 =
        0.065800 0.042300 0.022900 0.025600
N3      3  0.372700  0.616130  0.498430  1.000000 0.049600 0.062400 =
        0.046800 0.013600 0.011400 0.012400
N4      3  0.623200  0.724880  0.577780  1.000000 0.047500 0.064700 =
        0.053500 0.019700 0.018200 0.005400
C19     1  0.487700  0.432100  0.778010  1.000000 0.046300 0.049500 =
        0.042600 0.011400 0.014400 0.016800
C20     1  0.353500  0.432220  0.714320  1.000000 0.039700 0.039100 =
        0.049000 0.005400 0.016800 0.010000
C21     1  0.362600  0.502830  0.647870  1.000000 0.037100 0.044900 =
        0.047800 0.008300 0.011800 0.012500
C22     1  0.496200  0.570760  0.643660  1.000000 0.039500 0.039100 =
        0.042300 0.007900 0.013200 0.009900
C23     1  0.625500  0.569180  0.708670  1.000000 0.034300 0.044400 =
        0.047200 0.004500 0.011800 0.009400
C24     1  0.625700  0.501240  0.777270  1.000000 0.039600 0.045500 =
        0.043300 0.006000 0.011500 0.012600
C25     1  0.770300  0.501200  0.849450  1.000000 0.043200 0.065000 =
        0.048500 0.011100 0.008900 0.021200
C26     1  0.905500  0.580100  0.832600  1.000000 0.040800 0.085000 =
        0.087000 0.023400 0.005200 0.018600
C27     1  0.772600  0.548500  0.947230  1.000000 0.068000 0.107000 =
        0.052100 0.000000 0.003800 0.035500
C28     1  0.786900  0.376700  0.845400  1.000000 0.065000 0.077000 =
        0.067500 0.022800 0.015600 0.037500
C29     1  0.203200  0.354500  0.714110  1.000000 0.043500 0.047600 =
        0.055600 0.011000 0.017800 0.010300
C30     1  0.075200  0.380900  0.644300  1.000000 0.042500 0.072700 =
        0.097000 0.025200 0.017600 0.006200
C31     1  0.189000  0.224800  0.684500  1.000000 0.066300 0.049200 =
        0.072400 0.008100 0.031400 0.003800
C32     1  0.180600  0.373700  0.809200  1.000000 0.067000 0.069300 =
        0.076000 0.003400 0.038400 0.011000
C33     1  0.498300  0.641130  0.569580  1.000000 0.040700 0.046300 =
        0.040100 0.003800 0.012800 0.012500
C34     1  0.376400  0.677800  0.430840  1.000000 0.060500 0.080500 =
        0.046200 0.019900 0.010200 0.024100
C35     1  0.499300  0.761900  0.431520  1.000000 0.075000 0.080000 =
        0.052300 0.029500 0.024200 0.019000
C36     1  0.620600  0.782800  0.507400  1.000000 0.061400 0.079800 =
        0.058400 0.024700 0.022100 0.002900
H21     2  0.276000  0.504600  0.604700  1.000000 0.052000
H23     2  0.715000  0.615200  0.706200  1.000000 0.052000
H26A    2  0.899400  0.659100  0.834900  1.000000 0.111000
H26B    2  0.908500  0.551200  0.772800  1.000000 0.111000
H26C    2  0.993200  0.579500  0.879500  1.000000 0.111000
H27A    2  0.762600  0.626300  0.949400  1.000000 0.117000
H27B    2  0.864200  0.551000  0.991900  1.000000 0.117000
H27C    2  0.692500  0.497600  0.961300  1.000000 0.117000
H28A    2  0.704000  0.324500  0.855900  1.000000 0.101000
H28B    2  0.875900  0.378400  0.892200  1.000000 0.101000
H28C    2  0.791000  0.349600  0.785500  1.000000 0.101000
H30A    2  0.080100  0.461700  0.660100  1.000000 0.110000
H30B    2 -0.016600  0.330900  0.645900  1.000000 0.110000
H30C    2  0.081800  0.366500  0.583200  1.000000 0.110000
H31A    2  0.267300  0.204300  0.726700  1.000000 0.095000
H31B    2  0.195000  0.212500  0.623000  1.000000 0.095000
H31C    2  0.095900  0.176200  0.685300  1.000000 0.095000
H32A    2  0.258300  0.357800  0.855500  1.000000 0.105000
H32B    2  0.087500  0.321600  0.806600  1.000000 0.105000
H32C    2  0.182000  0.453700  0.824800  1.000000 0.105000
H34     2  0.290900  0.662800  0.380700  1.000000 0.075000
H35     2  0.500300  0.802800  0.382800  1.000000 0.081000
H36     2  0.705800  0.840500  0.510300  1.000000 0.082000
END
