TITL 4505197
CELL 0.71073 16.854 16.854 18.943 90 90 90
ZERR 16 0.003 0.003 0.004 0.00 0.00 0.00
LATT 2
SYMM 1/2-x,-y,1/2+z
SYMM 3/4-y,1/4+x,1/4+z
SYMM 3/4+y,3/4-x,3/4+z
SFAC C H N S
UNIT 168 272 32 16
FVAR 1.00
S1      4  0.557270  0.519280  0.129420  1.000000 0.095400 0.080200 =
        0.121500 -0.006500 0.012100 -0.000300
N2      3  0.643300  0.629900  0.067100  1.000000 0.098000 0.078000 =
        0.094000 -0.007000 0.012000 0.001000
H2A     2  0.669000  0.674000  0.068900  1.000000 0.108000
N3      3  0.619400  0.653000  0.181700  1.000000 0.088000 0.084000 =
        0.085000 -0.014000 0.011000 0.005000
H3A     2  0.641000  0.698400  0.174100  1.000000 0.103000
C1      1  0.500000  0.750000  0.250100  0.500000 0.063000 0.081000 =
        0.081000 0.000000 0.000000 -0.001000
C4      1  0.609000  0.605400  0.127300  1.000000 0.064000 0.083000 =
        0.091000 0.001000 0.004000 0.014000
C5      1  0.547600  0.696600  0.287900  1.000000 0.064000 0.106000 =
        0.070000 -0.005000 0.001000 0.001000
C6      1  0.596800  0.633800  0.252700  1.000000 0.088000 0.106000 =
        0.092000 -0.007000 -0.008000 0.018000
H6A     2  0.644500  0.625200  0.280400  1.000000 0.115000
H6B     2  0.567200  0.584500  0.252200  1.000000 0.115000
C7      1  0.546700  0.698100  0.361800  1.000000 0.075000 0.138000 =
        0.087000 0.018000 0.001000 0.011000
H7A     2  0.578900  0.662800  0.386300  1.000000 0.120000
C8      1  0.500000  0.750000  0.399600  0.500000 0.079000 0.149000 =
        0.074000 0.000000 0.000000 0.011000
C9      1  0.641500  0.589500 -0.000900  1.000000 0.126000 0.098000 =
        0.107000 -0.014000 0.027000 0.005000
H9A     2  0.589900  0.596700 -0.022700  1.000000 0.133000
H9B     2  0.649900  0.533100  0.006000  1.000000 0.133000
C10     1  0.500000  0.750000  0.482200  0.500000 0.116000 0.360000 =
        0.066000 0.000000 0.000000 0.025000
C11     1  0.707100  0.623300 -0.050300  1.000000 0.187000 0.117000 =
        0.106000 -0.017000 0.020000 -0.002000
H11A    2  0.696800  0.679200 -0.058000  1.000000 0.164000
H11B    2  0.757800  0.618800 -0.026600  1.000000 0.164000
C12     1  0.712600  0.585300 -0.116600  1.000000 0.193000 0.203000 =
        0.147000 -0.063000 0.019000 -0.021000
H12A    2  0.662200  0.591200 -0.140900  1.000000 0.217000
H12B    2  0.721100  0.529100 -0.108900  1.000000 0.217000
C13     1  0.568400  0.775900  0.512600  1.000000 0.207000 0.480000 =
        0.095000 -0.036000 -0.025000 -0.135000
H13A    2  0.563000  0.774400  0.563100  1.000000 0.392000
H13B    2  0.578900  0.829300  0.497800  1.000000 0.392000
H13C    2  0.611500  0.742200  0.498500  1.000000 0.392000
C14     1  0.780500  0.617500 -0.166200  1.000000 0.330000 0.510000 =
        0.185000 -0.113000 0.151000 -0.256000
H14A    2  0.779800  0.588800 -0.210000  1.000000 0.513000
H14B    2  0.830900  0.610300 -0.143500  1.000000 0.513000
H14C    2  0.772100  0.672900 -0.175200  1.000000 0.513000
END
