TITL 9012188
CELL 0.71073 5.092 6.741 4.527 90 90 90
ZERR 8 0.000 0.000 0.000 0 0 0
LATT 1
SYMM -x,1/2+y,-z
SYMM 1/2+x,1/2-y,1/2-z
SYMM 1/2-x,-y,1/2+z
SFAC C Fe
UNIT 4 12
FVAR 1.00
Fe1     2  0.183400  0.068900  0.334400  1.000000 0.005450
Fe2     2  0.038800  0.250000  0.842200  0.500000 0.012670
C       1 -0.123600  0.250000  0.442600  0.500000 0.011400
END
