TITL findsym-output
CELL 0.71073 3.08051 3.08051 10.0848 90 90 120
ZERR 12 0.00000 0.00000 0.00000 0.00000 0.00000 0.00000
LATT -1
SYMM x-y,x,1/2+z
SYMM -y,x-y,z
SYMM -x,-y,1/2+z
SYMM -x+y,-x,z
SYMM y,-x+y,1/2+z
SYMM -x+y,y,z
SYMM -x,-x+y,1/2+z
SYMM -y,-x,z
SYMM x-y,-y,1/2+z
SYMM x,x-y,z
SYMM y,x,1/2+z
SFAC C Si
UNIT 4 4
FVAR 1.00
C1      1  0.000000  0.000000  0.187840  0.166667 0.05000
Si1     2  0.000000  0.000000  0.000000  0.166667 0.05000
C2      1  0.333330  0.666670  0.436710  0.166667 0.05000
Si2     2  0.333330  0.666670  0.249820  0.166667 0.05000
END
