TITL CAFINE01
CELL 0.71073 3.974 16.751 14.8 90 95.8 90
ZERR 4 0.0010 0.004 0.003 0 0.02 0
LATT 1
SYMM -x,1/2+y,1/2-z
SFAC C N O
UNIT 32 16 12
FVAR 1.00
C1      1  0.190800  0.325200  0.086200  1.000000 0.05000
N1      2  0.333900  0.325100  0.004600  1.000000 0.05000
N2      2 -0.010300  0.222600  0.179700  1.000000 0.05000
C2      1 -0.101200  0.278900  0.240000  1.000000 0.05000
C3      1  0.134900  0.246600  0.104000  1.000000 0.05000
N3      2  0.235400  0.198000  0.038700  1.000000 0.05000
N4      2 -0.031600  0.358100  0.221700  1.000000 0.05000
C4      1  0.112600  0.387900  0.144400  1.000000 0.05000
O1      3  0.158000  0.459300  0.134800  1.000000 0.05000
O2      3 -0.236600  0.259600  0.307300  1.000000 0.05000
C5      1 -0.116700  0.417300  0.288700  1.000000 0.05000
C6      1 -0.071500  0.137900  0.197100  1.000000 0.05000
C7      1  0.443800  0.393800 -0.045800  1.000000 0.05000
C8      1  0.353400  0.248500 -0.019700  1.000000 0.05000
O3      3  0.237800  0.469500  0.523200  1.000000 0.05000
END
