TITL NIWFEE03
CELL 0.71073 43.039 15.0676 6.95314 90 99.0274 90
ZERR 4 0.0017 0.00064 0.00014 0 0.0022 0
LATT -7
SYMM x,-y,1/2+z
SFAC C H N O
UNIT 160 200 80 40
FVAR 1.00
C1      1  0.550170  0.967220  0.212720  1.000000 0.05000
N1      3  0.519230  0.953620  0.127240  1.000000 0.05000
N2      3  0.581150  1.096720  0.305460  1.000000 0.05000
C2      1  0.606580  1.044580  0.374630  1.000000 0.05000
C3      1  0.553420  1.057270  0.225240  1.000000 0.05000
N3      3  0.526460  1.100090  0.152340  1.000000 0.05000
N4      3  0.602920  0.953410  0.354390  1.000000 0.05000
C4      1  0.574950  0.907430  0.276170  1.000000 0.05000
O1      4  0.574370  0.826560  0.268160  1.000000 0.05000
O2      4  0.631480  1.077610  0.450090  1.000000 0.05000
C5      1  0.630670  0.898680  0.421260  1.000000 0.05000
C6      1  0.584060  1.193580  0.319430  1.000000 0.05000
C7      1  0.503180  0.869070  0.079850  1.000000 0.05000
C8      1  0.506580  1.034350  0.095280  1.000000 0.05000
H1      2  0.484230  1.044310  0.034120  1.000000 0.06000
H2      2  0.625190  0.834600  0.399380  1.000000 0.06000
H3      2  0.647940  0.914820  0.346810  1.000000 0.06000
H4      2  0.637850  0.909240  0.563280  1.000000 0.06000
H5      2  0.605870  1.209630  0.381640  1.000000 0.06000
H6      2  0.579660  1.220050  0.186040  1.000000 0.06000
H7      2  0.568620  1.217180  0.400130  1.000000 0.06000
H8      2  0.480900  0.880420  0.019130  1.000000 0.06000
H9      2  0.514180  0.835370 -0.013570  1.000000 0.06000
H10     2  0.503480  0.833480  0.201520  1.000000 0.06000
C9      1  0.802830  0.969330  0.951850  1.000000 0.05000
N5      3  0.825800  0.904390  0.988500  1.000000 0.05000
N6      3  0.746970  0.966050  0.854280  1.000000 0.05000
C10     1  0.745910  1.056980  0.859930  1.000000 0.05000
C11     1  0.775390  0.923740  0.899760  1.000000 0.05000
N7      3  0.779980  0.834810  0.901340  1.000000 0.05000
N8      3  0.774260  1.101680  0.907280  1.000000 0.05000
C12     1  0.804520  1.062930  0.959090  1.000000 0.05000
O3      4  0.827890  1.109100  1.000880  1.000000 0.05000
O4      4  0.720900  1.096660  0.823570  1.000000 0.05000
C13     1  0.772930  1.198890  0.904570  1.000000 0.05000
C14     1  0.717710  0.915810  0.800660  1.000000 0.05000
C15     1  0.859610  0.916540  1.049750  1.000000 0.05000
C16     1  0.810840  0.826790  0.956070  1.000000 0.05000
H11     2  0.821850  0.768170  0.971560  1.000000 0.06000
H12     2  0.794630  1.223480  0.940870  1.000000 0.06000
H13     2  0.763820  1.219670  0.770980  1.000000 0.06000
H14     2  0.759410  1.219920  0.999970  1.000000 0.06000
H15     2  0.699600  0.957930  0.772790  1.000000 0.06000
H16     2  0.719060  0.879410  0.682000  1.000000 0.06000
H17     2  0.714470  0.875810  0.910550  1.000000 0.06000
H18     2  0.870170  0.857280  1.064600  1.000000 0.06000
H19     2  0.868450  0.952020  0.949440  1.000000 0.06000
H20     2  0.863360  0.948650  1.177150  1.000000 0.06000
C17     1  1.004930  0.967160  0.521960  1.000000 0.05000
N9      3  1.036410  0.947520  0.523140  1.000000 0.05000
N10     3  0.975690  1.102540  0.516650  1.000000 0.05000
C18     1  0.948500  1.055530  0.520680  1.000000 0.05000
C19     1  1.003410  1.057660  0.516820  1.000000 0.05000
N11     3  1.031950  1.095080  0.514140  1.000000 0.05000
N12     3  0.950570  0.963650  0.519570  1.000000 0.05000
C20     1  0.978340  0.912300  0.522920  1.000000 0.05000
O5      4  0.977370  0.831380  0.524430  1.000000 0.05000
O6      4  0.923500  1.093530  0.524120  1.000000 0.05000
C21     1  0.921120  0.914280  0.515400  1.000000 0.05000
C22     1  0.974620  1.199820  0.513180  1.000000 0.05000
C23     1  1.051180  0.860000  0.528180  1.000000 0.05000
C24     1  1.051030  1.025590  0.518270  1.000000 0.05000
H21     2  1.074180  1.031140  0.517790  1.000000 0.06000
H22     2  0.925540  0.849140  0.514960  1.000000 0.06000
H23     2  0.906190  0.930350  0.395320  1.000000 0.06000
H24     2  0.911510  0.929620  0.633050  1.000000 0.06000
H25     2  0.952510  1.220160  0.513610  1.000000 0.06000
H26     2  0.982130  1.221970  0.392900  1.000000 0.06000
H27     2  0.988470  1.223760  0.630630  1.000000 0.06000
H28     2  1.074270  0.866950  0.527810  1.000000 0.06000
H29     2  1.041680  0.825120  0.411240  1.000000 0.06000
H30     2  1.047690  0.827950  0.648930  1.000000 0.06000
C25     1  0.180690  0.929610  0.579870  1.000000 0.05000
N13     3  0.187090  0.839440  0.590590  1.000000 0.05000
N14     3  0.212430  1.060180  0.639490  1.000000 0.05000
C26     1  0.186240  1.112610  0.594810  1.000000 0.05000
C27     1  0.209250  0.969650  0.630810  1.000000 0.05000
N15     3  0.232880  0.909910  0.671660  1.000000 0.05000
N16     3  0.157670  1.070210  0.537560  1.000000 0.05000
C28     1  0.152320  0.977140  0.527820  1.000000 0.05000
O7      4  0.125960  0.947220  0.477790  1.000000 0.05000
O8      4  0.188180  1.193480  0.604450  1.000000 0.05000
C29     1  0.130090  1.127100  0.482170  1.000000 0.05000
C30     1  0.243290  1.101900  0.696530  1.000000 0.05000
C31     1  0.164840  0.765940  0.550670  1.000000 0.05000
C32     1  0.218180  0.832310  0.645220  1.000000 0.05000
H31     2  0.229340  0.774000  0.664370  1.000000 0.06000
H32     2  0.111020  1.089320  0.443960  1.000000 0.06000
H33     2  0.133410  1.165400  0.369690  1.000000 0.06000
H34     2  0.127000  1.165470  0.595000  1.000000 0.06000
H35     2  0.240850  1.167910  0.694300  1.000000 0.06000
H36     2  0.257630  1.083950  0.603310  1.000000 0.06000
H37     2  0.252450  1.082330  0.830920  1.000000 0.06000
H38     2  0.176420  0.708320  0.570790  1.000000 0.06000
H39     2  0.153920  0.769750  0.412940  1.000000 0.06000
H40     2  0.148930  0.769410  0.640930  1.000000 0.06000
C33     1  0.371520  0.939930  0.636100  1.000000 0.05000
N17     3  0.383330  0.854580  0.664930  1.000000 0.05000
N18     3  0.394080  1.084800  0.688900  1.000000 0.05000
C34     1  0.365430  1.122810  0.623000  1.000000 0.05000
C35     1  0.396680  0.994100  0.693890  1.000000 0.05000
N19     3  0.423290  0.947570  0.755970  1.000000 0.05000
N20     3  0.340500  1.066220  0.559390  1.000000 0.05000
C36     1  0.341120  0.971940  0.562670  1.000000 0.05000
O9      4  0.317490  0.928820  0.505180  1.000000 0.05000
O10     4  0.362190  1.203430  0.619930  1.000000 0.05000
C37     1  0.310350  1.107780  0.481530  1.000000 0.05000
C38     1  0.421330  1.141840  0.753580  1.000000 0.05000
C39     1  0.366370  0.770780  0.626730  1.000000 0.05000
C40     1  0.413900  0.863660  0.735520  1.000000 0.05000
H41     2  0.428340  0.812090  0.769720  1.000000 0.06000
H42     2  0.294300  1.060690  0.440670  1.000000 0.06000
H43     2  0.312940  1.145320  0.366490  1.000000 0.06000
H44     2  0.303210  1.145740  0.584220  1.000000 0.06000
H45     2  0.414840  1.205510  0.739130  1.000000 0.06000
H46     2  0.438100  1.129780  0.672430  1.000000 0.06000
H47     2  0.429670  1.129170  0.893330  1.000000 0.06000
H48     2  0.381170  0.720110  0.661980  1.000000 0.06000
H49     2  0.357310  0.767030  0.485440  1.000000 0.06000
H50     2  0.348990  0.767780  0.706600  1.000000 0.06000
END
