TITL NIWFEE02
CELL 0.71073 14.9372 14.9372 6.898 90 90 120
ZERR 18 0.0005 0.0005 0.0002 0 0 0
LATT -3
SYMM -y,x-y,z
SYMM -x+y,-x,z
SYMM -y,-x,1/2+z
SYMM -x+y,y,1/2+z
SYMM x,x-y,1/2+z
SFAC C H N O
UNIT 144 180 72 36
FVAR 1.00
C1      1 -0.066130 -0.063140  0.095620  1.000000 0.05000
C2      1  0.027790 -0.055340  0.100000  1.000000 0.05000
N1      3 -0.075600 -0.116760  0.082260  1.000000 0.05000
C3      1 -0.129600 -0.020940  0.060000  1.000000 0.05000
O1      4 -0.213850 -0.027510  0.044510  1.000000 0.05000
N2      3 -0.121540 -0.109950  0.055470  1.000000 0.05000
C4      1 -0.077380  0.025040  0.073210  1.000000 0.05000
O2      4 -0.018000 -0.180120  0.069260  1.000000 0.05000
N3      3 -0.137930 -0.163530  0.115470  1.000000 0.05000
N4      3  0.013890 -0.150920  0.122550  1.000000 0.05000
C5      1 -0.088630 -0.217780  0.132100  1.000000 0.05000
C6      1 -0.251100 -0.206630  0.118470  1.000000 0.05000
C7      1 -0.169970 -0.219680  0.087060  1.000000 0.05000
C8      1 -0.215300 -0.212300  0.031860  1.000000 0.05000
H1      2 -0.121460 -0.292850  0.148340  1.000000 0.06000
H2      2 -0.273170 -0.190280 -0.003820  1.000000 0.06000
H3      2 -0.285670 -0.281820  0.134620  1.000000 0.06000
H4      2 -0.269510 -0.176390  0.226600  1.000000 0.06000
H5      2 -0.215870 -0.225130 -0.019430  1.000000 0.06000
H6      2 -0.151010 -0.273380  0.072810  1.000000 0.06000
H7      2 -0.205630 -0.228780  0.210980  1.000000 0.06000
H8      2 -0.249090 -0.214210 -0.091090  1.000000 0.06000
H9      2 -0.196020 -0.266100  0.031700  1.000000 0.06000
H10     2 -0.262930 -0.225020  0.139300  1.000000 0.06000
END
