TITL 9007849
CELL 0.71073 2.9471 10.593 5.2564 90 90 90
ZERR 8 0.0000 0.000 0.0000 0 0 0
LATT -7
SYMM x,-y,1/2+z
SYMM -x,y,z
SYMM -x,-y,1/2+z
SFAC H O Cu
UNIT 8 8 4
FVAR 1.00
Cu      3  0.500000  0.682000  0.250000  0.500000 0.008300 0.007600 =
        0.009800 0.000000 0.000000 -0.000900
O1      2  0.000000  0.558300  0.253400  0.500000 0.012500 0.008300 =
        0.016800 0.000000 0.000000 0.004700
O2      2  0.000000  0.799400  0.196700  0.500000 0.009900 0.006400 =
        0.003900 0.000000 0.000000 0.000800
H1      1  0.000000  0.505800  0.411800  0.500000 0.027000
H2      1  0.000000  0.900100  0.191400  0.500000 0.032000
END
