TITL CUBDC
CELL 0.71073 5.2502 9.66899 10.7679 90.291 91.059 92.413
ZERR 2 0.0000 0.00000 0.00000 0.000 0.000 0.000
LATT 1
SFAC C H O Cu
UNIT 16 8 8 2
FVAR 1.00
Cu1     4  0.708200  0.434800  0.488200  1.000000 0.05000
O1      3  0.490100  0.266300  0.472300  1.000000 0.05000
O2      3  0.115200  0.377600  0.502300  1.000000 0.05000
O5      3  0.678900  0.446400  0.670800  1.000000 0.05000
O6      3  0.308000  0.564900  0.691800  1.000000 0.05000
C1      1 -0.100700  0.120100  0.568300  1.000000 0.05000
C2      1  0.118000  0.130000  0.493200  1.000000 0.05000
C3      1  0.249900  0.267900  0.488000  1.000000 0.05000
C4      1  0.219300  0.010000  0.425600  1.000000 0.05000
C9      1  0.302200  0.565300  0.947000  1.000000 0.05000
C10     1  0.498300  0.503100  0.871500  1.000000 0.05000
C11     1  0.494900  0.505300  0.733700  1.000000 0.05000
C12     1  0.696300  0.437900  0.925100  1.000000 0.05000
H1      2 -0.168500  0.204600  0.615900  1.000000 0.06000
H2      2  0.374300  0.019300  0.375200  1.000000 0.06000
H5      2  0.165500  0.610300  0.907800  1.000000 0.06000
H6      2  0.833000  0.396200  0.871100  1.000000 0.06000
END
