TITL 1011148
CELL 0.71073 4.653 3.41 5.108 90 99.48 90
ZERR 8 0.010 0.01 0.010 0 0.33 0
LATT 7
SYMM -x,y,1/2-z
SFAC O Cu
UNIT 4 4
FVAR 1.00
Cu1     2  0.250000  0.250000  0.000000  0.500000 0.05000
O1      1  0.000000 -0.084000 -0.250000  0.500000 0.05000
END
