TITL 67850-ICSD
CELL 0.71073 4.6797 3.4314 5.1362 90 99.262 90
ZERR 8 0.0000 0.0000 0.0000 0 0.000 0
LATT 7
SYMM -x,y,1/2-z
SFAC O Cu
UNIT 4 4
FVAR 1.00
Cu1     2  0.250000  0.250000  0.000000  0.500000 0.05000
O1      1  0.000000  0.582200  0.250000  0.500000 0.05000
END
