TITL jb_away_cr781
CELL 0.71073 5.5225 8.0712 31.0578 94.482 92.994 105.696
ZERR 2 0.0004 0.0004 0.0015 0.004 0.005 0.005
LATT 1
SFAC C H O S
UNIT 60 80 4 4
FVAR 1.00
S1      4  0.382610  0.158210  0.669713  1.000000 0.010300 0.019000 =
        0.014300 -0.000500 0.002000 0.000100
S2      4 -0.327650 -0.183450  0.630903  1.000000 0.009500 0.020700 =
        0.015200 -0.001500 0.001800 0.001000
O1      3  0.178700  0.273600  0.830360  1.000000 0.014800 0.024700 =
        0.013300 -0.003700 0.000300 -0.002200
O2      3 -0.147500 -0.350960  0.475620  1.000000 0.016100 0.023500 =
        0.012000 -0.004000 0.002300 -0.001700
C1      1  0.131000  0.015600  0.638430  1.000000 0.009400 0.010700 =
        0.017300 0.000600 -0.001100 0.003400
C2      1 -0.077900 -0.037000  0.661290  1.000000 0.010500 0.012900 =
        0.013900 -0.000800 -0.001500 0.002600
C3      1 -0.042300  0.035300  0.705660  1.000000 0.013600 0.012100 =
        0.016000 0.000600 0.000600 0.005600
C4      1  0.202900  0.146000  0.714720  1.000000 0.010200 0.013200 =
        0.014600 0.001700 -0.000300 0.003200
C5      1  0.288900  0.230600  0.756120  1.000000 0.011400 0.015000 =
        0.016800 0.001400 -0.000400 0.001500
H5      2  0.455100  0.304800  0.761900  1.000000 0.018000
C6      1  0.121600  0.201400  0.788140  1.000000 0.017200 0.017800 =
        0.014300 -0.001500 -0.001600 0.007600
C7      1 -0.123300  0.091900  0.779850  1.000000 0.013600 0.020300 =
        0.017900 0.002500 0.004900 0.003800
H7      2 -0.233400  0.074000  0.802600  1.000000 0.021000
C8      1 -0.206600  0.009500  0.739000  1.000000 0.010400 0.016500 =
        0.018900 0.001400 -0.000200 0.002600
H8      2 -0.373600 -0.063800  0.733500  1.000000 0.019000
C9      1  0.098500 -0.061800  0.594330  1.000000 0.011800 0.010500 =
        0.013300 0.000900 -0.000700 0.004100
C10     1 -0.146700 -0.175800  0.585950  1.000000 0.011000 0.012900 =
        0.014400 0.002600 0.002300 0.004500
C11     1 -0.226000 -0.270600  0.546000  1.000000 0.007700 0.017500 =
        0.017200 0.000800 -0.001100 0.002900
H11     2 -0.391500 -0.346400  0.540800  1.000000 0.017000
C12     1 -0.058100 -0.251900  0.513960  1.000000 0.015400 0.015100 =
        0.011900 -0.000900 -0.001400 0.003500
C13     1  0.184700 -0.139000  0.521530  1.000000 0.015900 0.019800 =
        0.013000 0.000800 0.003200 0.004300
H13     2  0.297500 -0.127300  0.499200  1.000000 0.020000
C14     1  0.261800 -0.044500  0.561310  1.000000 0.010900 0.016800 =
        0.015700 0.004000 0.001100 0.000700
H14     2  0.426700  0.032400  0.566100  1.000000 0.018000
C15     1  0.428200  0.383400  0.841660  1.000000 0.012800 0.023100 =
        0.019700 -0.000800 0.001200 0.003800
H15A    2  0.461700  0.484300  0.824500  1.000000 0.023000
H15B    2  0.554500  0.319400  0.835800  1.000000 0.023000
C16     1  0.443400  0.442100  0.889350  1.000000 0.017300 0.021400 =
        0.016900 -0.002200 -0.000500 0.004300
H16A    2  0.404100  0.339400  0.905900  1.000000 0.023000
H16B    2  0.314700  0.504700  0.894600  1.000000 0.023000
C17     1  0.701900  0.559400  0.905890  1.000000 0.017900 0.021200 =
        0.018200 -0.001800 0.000700 0.002300
H17A    2  0.738100  0.664300  0.890100  1.000000 0.024000
H17B    2  0.831200  0.498500  0.899600  1.000000 0.024000
C18     1  0.722000  0.613300  0.954280  1.000000 0.016100 0.022900 =
        0.018600 -0.002900 -0.000100 0.004100
H18A    2  0.675500  0.507900  0.969800  1.000000 0.024000
H18B    2  0.598300  0.679300  0.960200  1.000000 0.024000
C19     1  0.983500  0.723100  0.972420  1.000000 0.018200 0.021700 =
        0.019800 -0.001900 -0.001500 0.003300
H19A    2  1.108600  0.658500  0.966100  1.000000 0.025000
H19B    2  1.029000  0.830400  0.957600  1.000000 0.025000
C20     1  0.997200  0.770900  1.021110  1.000000 0.020900 0.021200 =
        0.018600 -0.001300 -0.000600 0.004900
H20A    2  0.872200  0.835800  1.027200  1.000000 0.025000
H20B    2  0.949100  0.663300  1.035700  1.000000 0.025000
C21     1  1.255800  0.879200  1.040470  1.000000 0.022600 0.021200 =
        0.026000 -0.002000 -0.004700 0.003600
H21A    2  1.304700  0.987200  1.026100  1.000000 0.029000
H21B    2  1.381400  0.814500  1.034700  1.000000 0.029000
C22     1  1.261400  0.924700  1.089240  1.000000 0.039700 0.031000 =
        0.026800 -0.006800 -0.012800 0.007000
H22A    2  1.144900  0.994800  1.095000  1.000000 0.051000
H22B    2  1.432700  0.990200  1.100300  1.000000 0.051000
H22C    2  1.210200  0.818200  1.103600  1.000000 0.051000
C23     1  0.018800 -0.336300  0.441010  1.000000 0.014100 0.016900 =
        0.015100 0.003000 0.003200 0.002900
H23A    2  0.172200 -0.369700  0.450000  1.000000 0.019000
H23B    2  0.070300 -0.215600  0.433300  1.000000 0.019000
C24     1 -0.123400 -0.455300  0.402810  1.000000 0.014400 0.017000 =
        0.015200 0.003200 0.002000 0.002900
H24A    2 -0.284100 -0.427200  0.396000  1.000000 0.019000
H24B    2 -0.164700 -0.576000  0.410500  1.000000 0.019000
C25     1  0.027700 -0.440600  0.362790  1.000000 0.013800 0.018600 =
        0.016200 0.002100 0.002600 0.003600
H25A    2  0.067500 -0.320100  0.355000  1.000000 0.020000
H25B    2  0.189100 -0.467500  0.369700  1.000000 0.020000
C26     1 -0.114800 -0.562200  0.324200  1.000000 0.013700 0.016700 =
        0.017300 0.002900 0.002900 0.003500
H26A    2 -0.152000 -0.682300  0.332300  1.000000 0.019000
H26B    2 -0.278100 -0.536700  0.318200  1.000000 0.019000
C27     1  0.021200 -0.552600  0.282730  1.000000 0.013500 0.016800 =
        0.018700 0.001000 0.000800 0.001800
H27A    2  0.180400 -0.584800  0.287700  1.000000 0.020000
H27B    2  0.064500 -0.432300  0.274700  1.000000 0.020000
C28     1 -0.141900 -0.673200  0.245610  1.000000 0.014600 0.019400 =
        0.017700 0.001600 0.003600 0.004300
H28A    2 -0.178800 -0.793100  0.253800  1.000000 0.021000
H28B    2 -0.304600 -0.644200  0.242300  1.000000 0.021000
C29     1 -0.029000 -0.667900  0.201880  1.000000 0.020900 0.022500 =
        0.016800 0.000700 0.003800 0.002500
H29A    2  0.133900 -0.696900  0.204700  1.000000 0.025000
H29B    2  0.004300 -0.549400  0.192800  1.000000 0.025000
C30     1 -0.205500 -0.794700  0.167340  1.000000 0.032100 0.026200 =
        0.018600 -0.001700 0.001100 0.005500
H30A    2 -0.232400 -0.912700  0.175600  1.000000 0.040000
H30B    2 -0.129800 -0.785700  0.139500  1.000000 0.040000
H30C    2 -0.367600 -0.767100  0.164800  1.000000 0.040000
END
