TITL PQ-SIP
CELL 1.1808 4.691 5.991 13.454 77.83 84.13 81.11
ZERR 2 0.0000 0.0000 0.0000 0.000 0.000 0.000
LATT 1
SFAC C H O
UNIT 22 12 2
FVAR 1.00
C1      1 -0.099600 -0.177900 -0.045100  1.000000 0.05000
C3      1 -0.200200 -0.147600  0.060200  1.000000 0.05000
C4      1 -0.111100  0.028100  0.102500  1.000000 0.05000
C7      1 -0.387400 -0.291200  0.117400  1.000000 0.05000
C8      1  0.220700 -0.058700 -0.199100  1.000000 0.05000
C11     1 -0.495800 -0.265500  0.216900  1.000000 0.05000
C12     1  0.414900  0.083800 -0.258200  1.000000 0.05000
C15     1 -0.686500 -0.412700  0.276300  1.000000 0.05000
C16     1  0.531400  0.054400 -0.357000  1.000000 0.05000
C19     1 -0.793100 -0.380800  0.372500  1.000000 0.05000
C20     1  0.716200  0.200200 -0.413000  1.000000 0.05000
O1      3 -0.192000 -0.319600 -0.084500  1.000000 0.05000
H1      2 -0.454600 -0.425100  0.084600  1.000000 0.06000
H2      2  0.152500 -0.195000 -0.229900  1.000000 0.06000
H5      2 -0.749400 -0.547600  0.243100  1.000000 0.06000
H6      2  0.473300 -0.086100 -0.387600  1.000000 0.06000
H9      2 -0.942700 -0.492500  0.417000  1.000000 0.06000
H10     2  0.805400  0.175800 -0.488800  1.000000 0.06000
END
