TITL witte_rt
CELL 0.71073 4.7068 7.4771 11.0772 97.875 93.848 99.371
ZERR 2 0.0006 0.0008 0.0009 0.008 0.009 0.010
LATT 1
SFAC C H O
UNIT 22 10 4
FVAR 1.00
C1      1  0.735700  0.623400  0.475250  1.000000 0.034200 0.032900 =
        0.040100 0.003400 -0.003600 0.006400
O2      3  1.160200  0.840700  0.535220  1.000000 0.050900 0.053300 =
        0.051600 -0.000200 -0.008300 -0.004800
C2      1  0.993300  0.754900  0.450600  1.000000 0.037900 0.034300 =
        0.047000 0.002100 -0.003700 0.010200
C3      1  1.034500  0.773600  0.321200  1.000000 0.040800 0.038200 =
        0.046800 0.006300 0.003500 0.010300
C4      1  1.260500  0.904000  0.295300  1.000000 0.052700 0.045600 =
        0.063600 0.005500 0.008000 0.004700
H4      2  1.383300  0.977100  0.358800  1.000000 0.065000
C5      1  1.301600  0.924100  0.176500  1.000000 0.067000 0.057700 =
        0.077000 0.018000 0.023800 0.002200
H5      2  1.450100  1.012900  0.159400  1.000000 0.080000
C6      1  1.123900  0.813500  0.081800  1.000000 0.080000 0.069000 =
        0.056700 0.015200 0.019800 0.007700
H6      2  1.154300  0.828000  0.001400  1.000000 0.082000
C7      1  0.902200  0.681900  0.104900  1.000000 0.061500 0.062300 =
        0.046700 0.006600 0.005700 0.010900
H7      2  0.784300  0.607000  0.040600  1.000000 0.068000
C8      1  0.856500  0.662000  0.225700  1.000000 0.047100 0.045500 =
        0.042800 0.007300 0.002900 0.009800
O9      3  0.469100  0.414100  0.167350  1.000000 0.086300 0.082500 =
        0.041500 -0.002100 -0.007100 -0.026700
C9      1  0.616000  0.520300  0.249700  1.000000 0.052700 0.047800 =
        0.041800 0.002300 -0.001000 0.006200
C10     1  0.556500  0.511200  0.379430  1.000000 0.039000 0.037000 =
        0.037900 0.002300 -0.002200 0.009500
C11     1  0.321700  0.388700  0.405080  1.000000 0.040200 0.037400 =
        0.039400 -0.001600 -0.006300 0.006800
H11     2  0.201900  0.314100  0.341200  1.000000 0.048000
END
