TITL witte
CELL 0.71073 4.6889 7.3537 11.0965 98.666 93.323 98.592
ZERR 2 0.0008 0.0010 0.0013 0.010 0.011 0.012
LATT 1
SFAC C H O
UNIT 22 10 4
FVAR 1.00
O1      3  1.162900  0.341890  0.534860  1.000000 0.024800 0.024300 =
        0.023300 -0.000300 -0.001500 0.001800
O2      3  0.464100 -0.086340  0.166040  1.000000 0.039500 0.037600 =
        0.018800 -0.000200 -0.001100 -0.007900
C1      1  0.736400  0.123400  0.474950  1.000000 0.016700 0.013700 =
        0.019000 0.001600 0.001000 0.005400
C2      1  0.680300  0.112200  0.595800  1.000000 0.019200 0.017200 =
        0.016600 -0.001800 -0.003300 0.003800
H2A     2  0.802900  0.188600  0.661000  1.000000 0.022000
C3      1  1.035700  0.273400  0.320960  1.000000 0.018800 0.017300 =
        0.021900 0.003000 0.004000 0.008200
C4      1  0.613300  0.020100  0.248710  1.000000 0.023100 0.021500 =
        0.019000 0.000100 -0.000700 0.005500
C5      1  0.556400  0.011400  0.379340  1.000000 0.020600 0.017800 =
        0.016400 0.002100 0.001300 0.008000
C6      1  0.854600  0.161600  0.224990  1.000000 0.021600 0.019400 =
        0.019400 0.003800 0.003800 0.007300
C7      1  0.994300  0.254900  0.450770  1.000000 0.018600 0.016300 =
        0.020600 0.001300 -0.000300 0.006600
C8      1  1.262100  0.404900  0.295240  1.000000 0.024800 0.019700 =
        0.028900 0.001100 0.004200 0.006800
H8A     2  1.387600  0.480100  0.360000  1.000000 0.029000
C9      1  0.899300  0.182000  0.103860  1.000000 0.028900 0.027500 =
        0.020400 0.002000 0.002600 0.008400
H9A     2  0.777300  0.105800  0.038400  1.000000 0.030000
C11     1  1.122900  0.314300  0.080170  1.000000 0.036600 0.032100 =
        0.026100 0.009300 0.010000 0.007600
H11A    2  1.153400  0.329300 -0.001900  1.000000 0.037000
C13     1  1.302400  0.424800  0.175260  1.000000 0.029400 0.025500 =
        0.034700 0.007600 0.010400 0.003300
H13A    2  1.454700  0.515300  0.157900  1.000000 0.035000
END
