TITL 1011053
CELL 0.71073 3.095 3.095 15.17 90 90 120
ZERR 6 0.000 0.000 0.00 0 0 0
LATT -1
SYMM -y,x-y,z
SYMM -x+y,-x,z
SYMM -x,-y,1/2+z
SYMM y,-x+y,1/2+z
SYMM x-y,x,1/2+z
SFAC C Si
UNIT 6 6
FVAR 1.00
Si1     2  0.000000  0.000000  0.125000  0.333333 0.05000
C3      1  0.666700  0.333300  0.333300  0.333333 0.05000
C1      1  0.000000  0.000000  0.000000  0.333333 0.05000
C2      1  0.333300  0.666700  0.166700  0.333333 0.05000
Si2     2  0.333300  0.666700  0.291700  0.333333 0.05000
Si3     2  0.333300  0.666700  0.958300  0.333333 0.05000
END
