TITL 24170-ICSD
CELL 0.71073 3.073 3.073 10.053 90 90 120
ZERR 12 0.000 0.000 0.000 0 0 0
LATT -1
SYMM -x,-x+y,1/2+z
SYMM x-y,-y,1/2+z
SYMM y,x,1/2+z
SYMM x-y,x,1/2+z
SYMM y,-x+y,1/2+z
SYMM -x,-y,1/2+z
SYMM x,x-y,z
SYMM -x+y,y,z
SYMM -y,-x,z
SYMM -x+y,-x,z
SYMM -y,x-y,z
SFAC C Si
UNIT 4 4
FVAR 1.00
Si1     2  0.000000  0.000000  0.188000  0.166667 0.000000
Si2     2  0.333300 -0.333300  0.438000  0.166667 0.000000
C1      1  0.000000  0.000000  0.000000  0.166667 0.000000
C2      1  0.333300 -0.333300  0.250000  0.166667 0.000000
END
