TITL SINDIG02
CELL 0.71073 3.981 20.65 7.93 90 98.84 90
ZERR 4 0.003 0.02 0.007 0 0.05 0
LATT 1
SYMM 1/2-x,1/2+y,1/2-z
SFAC C O S
UNIT 32 4 4
FVAR 1.00
S1      3 -0.136000  0.004800  0.262000  1.000000 0.05000
O1      2 -0.151000  0.111500 -0.142000  1.000000 0.05000
C1      1 -0.062000  0.019800  0.053000  1.000000 0.05000
C2      1 -0.177000  0.090300 -0.006000  1.000000 0.05000
C3      1 -0.304000  0.121500  0.143000  1.000000 0.05000
C4      1 -0.430000  0.187800  0.137000  1.000000 0.05000
C5      1 -0.513000  0.212000  0.283000  1.000000 0.05000
C6      1 -0.506000  0.172200  0.428000  1.000000 0.05000
C7      1 -0.383000  0.108800  0.433000  1.000000 0.05000
C8      1 -0.294000  0.084400  0.284000  1.000000 0.05000
END
