TITL SINDIG
CELL 0.71073 7.91 3.97 20.41 90 93 90
ZERR 4 0.03 0.02 0.03 0 0 0
LATT 1
SYMM -x,1/2+y,1/2-z
SFAC C O S
UNIT 32 4 4
FVAR 1.00
C1      1 -0.049700  0.074000  0.021400  1.000000 0.05000
C2      1  0.014500  0.199000  0.089500  1.000000 0.05000
C3      1 -0.129800  0.341000  0.124600  1.000000 0.05000
C4      1 -0.125000  0.482000  0.187000  1.000000 0.05000
C5      1 -0.268300  0.587000  0.213800  1.000000 0.05000
C6      1 -0.423400  0.544000  0.175200  1.000000 0.05000
C7      1 -0.431900  0.412000  0.112600  1.000000 0.05000
C8      1 -0.284300  0.300000  0.087000  1.000000 0.05000
S1      3 -0.271200  0.138000  0.008500  1.000000 0.05000
O1      2  0.160300  0.153000  0.108000  1.000000 0.05000
END
