TITL Testing !this is a test file for the *.res file import in GIDVis, it is not an actual crystal structure
CELL 1.54 5.037 3.518 12.49 90.83 98.7 89.01
ZERR 1 0.001 0.005 0.03 0.08 0.1 0.02
LATT -1
SFAC C H S Na O Li
UNIT 1 1 1 1 1 1
C       1  0.333333  0.666667 0.0000  1.000000 0.01000 0.02000 0.03000 = 
        0.04000 0.05000 0.06000
H       2  0.666700 0.333300 0.0000  1.000000 0.05000
S       3  0.333 0.000 0.666 1.000000 0.05000
Na      4  0.00  0.6666600 0.3333300  1.000000 0.05000
O       5  0.6606600 0.000 0.333030   1.000000 0.05000
Li      6  0.0000 0.330300  0.606700   1.000000 0.05000